No,Region,Country,item Type,Sales Channel,Order Priority,Order ID,Profit,Total Profit
1,Middle East and North Africa,Libya,Cosmetics,Offline,Medium,686800706,173.87003,1468506.02
2,North America,Canada,Vegetables,Online,Medium,185941302,63.129997,190526.34
3,Middle East and North Africa,Libya,Baby Food,Offline,Slow,246222341,95.86,145419.62
4,Asia,Japan,Cereal,Offline,Slow,161442649,88.59,294295.98
5,Sub-Saharan Africa,Chad,Fruits,Offline,Fast,645713555,2.4099998,23726.45
6,Europe,Armenia,Cereal,Online,Fast,683458888,88.59,844085.52
7,Sub-Saharan Africa,Eritrea,Cereal,Online,Fast,679414975,88.59,251949.96
8,Europe,Montenegro,Clothes,Offline,Medium,208630645,73.44,536038.56
9,Central America and the Caribbean,Jamaica,Vegetables,Online,Fast,266467225,63.129997,153279.64
10,Australia and Oceania,Fiji,Vegetables,Offline,Fast,118598544,63.129997,303024.00
11,Sub-Saharan Africa,Togo,Clothes,Online,Medium,451010930,73.44,221201.28
12,Europe,Montenegro,Snacks,Offline,Medium,220003211,55.14,148547.16
13,Europe,Greece,Household,Online,Slow,702186715,165.73001,249920.84
14,Sub-Saharan Africa,Sudan,Cosmetics,Online,Slow,544485270,173.87003,720865.02
15,Asia,Maldives,Fruits,Offline,UltraFast,714135205,2.4099998,17670.12
16,Europe,Montenegro,Clothes,Offline,Fast,448685348,73.44,353980.80
17,Europe,Estonia,Office Supplies,Online,Fast,405997025,126.25,302621.25
18,North America,Greenland,Beverages,Online,Medium,414244067,15.66,45100.80
19,Sub-Saharan Africa,Cape Verde,Clothes,Online,Slow,821912801,73.44,82032.48
20,Sub-Saharan Africa,Senegal,Household,Offline,UltraFast,247802054,165.73001,1489746.97
21,Australia and Oceania,Federated States of Micronesia,Snacks,Online,Slow,531023156,55.14,22441.98
22,Europe,Bulgaria,Clothes,Online,UltraFast,880999934,73.44,463626.72
23,Middle East and North Africa,Algeria,Personal Care,Online,Fast,127468717,25.060005,242605.86
24,Asia,Mongolia,Clothes,Online,UltraFast,770478332,73.44,37821.60
25,Central America and the Caribbean,Grenada,Cereal,Online,Fast,430390107,88.59,75478.68
26,Central America and the Caribbean,Grenada,Beverages,Online,Medium,397877871,15.66,152825.94
27,Sub-Saharan Africa,Senegal,Beverages,Offline,Medium,683927953,15.66,130510.44
28,North America,Greenland,Fruits,Offline,Medium,469839179,2.4099998,11348.69
29,Sub-Saharan Africa,Chad,Meat,Offline,Fast,357222878,57.200012,517259.60
30,Sub-Saharan Africa,Mauritius,Personal Care,Online,Slow,118002879,25.060005,213736.74
31,Middle East and North Africa,Morocco,Beverages,Offline,Slow,944415509,15.66,37443.06
32,Central America and the Caribbean,Honduras,Office Supplies,Online,Fast,499009597,126.25,869105.00
33,Sub-Saharan Africa,Benin,Fruits,Online,UltraFast,564646470,2.4099998,706.13
34,Europe,Greece,Baby Food,Offline,Medium,294499957,95.86,760840.82
35,Central America and the Caribbean,Jamaica,Beverages,Offline,UltraFast,262056386,15.66,112172.58
36,Sub-Saharan Africa,Equatorial Guinea,Office Supplies,Online,Medium,211114585,126.25,296940.00
37,Sub-Saharan Africa,Swaziland,Office Supplies,Offline,Fast,405785882,126.25,1251768.75
38,Central America and the Caribbean,Trinidad and Tobago,Vegetables,Offline,Medium,280494105,63.129997,207950.22
39,Europe,Sweden,Baby Food,Online,UltraFast,689975583,95.86,763333.18
40,Europe,Belarus,Office Supplies,Online,UltraFast,759279143,126.25,811282.50
41,Sub-Saharan Africa,Guinea-Bissau,Office Supplies,Offline,Slow,133766114,126.25,406651.25
42,Asia,Mongolia,Beverages,Online,Medium,329110324,15.66,155237.58
43,Middle East and North Africa,Turkey,Meat,Online,UltraFast,681298100,57.200012,5891.60
44,Sub-Saharan Africa,Central African Republic,Snacks,Offline,UltraFast,596628272,55.14,243663.66
45,Sub-Saharan Africa,Equatorial Guinea,Office Supplies,Offline,UltraFast,901712167,126.25,697278.75
46,Asia,Laos,Beverages,Online,Medium,693473613,15.66,48655.62
47,Europe,Armenia,Meat,Online,Slow,489148938,57.200012,508851.20
48,Europe,Greece,Household,Online,UltraFast,876286971,165.73001,272294.39
49,Middle East and North Africa,Israel,Personal Care,Offline,Fast,262749040,25.060005,53503.10
50,Asia,Bhutan,Meat,Online,Fast,726708972,57.200012,468410.80
51,Australia and Oceania,Vanuatu,Vegetables,Online,UltraFast,366653096,63.129997,609457.02
52,Sub-Saharan Africa,Burundi,Vegetables,Online,Medium,951380240,63.129997,215273.30
53,Europe,Ukraine,Cosmetics,Online,Medium,270001733,173.87003,1454944.16
54,Europe,Croatia,Beverages,Online,Slow,681941401,15.66,7360.20
55,Sub-Saharan Africa,Madagascar,Fruits,Online,UltraFast,566935575,2.4099998,18532.90
56,Asia,Malaysia,Snacks,Offline,Medium,175033080,55.14,277519.62
57,Asia,Uzbekistan,Office Supplies,Offline,UltraFast,276595246,126.25,1203793.75
58,Europe,Italy,Office Supplies,Online,Medium,812295901,126.25,664453.75
59,Asia,Nepal,Vegetables,Offline,Slow,443121373,63.129997,524989.08
60,Australia and Oceania,Fiji,Personal Care,Offline,Fast,600370490,25.060005,45709.44
61,Europe,Portugal,Office Supplies,Online,UltraFast,535654580,126.25,119811.25
62,Central America and the Caribbean,Panama,Cosmetics,Offline,Fast,470897471,173.87003,1370269.47
63,Europe,Belarus,Beverages,Offline,UltraFast,248335492,15.66,107208.36
64,Sub-Saharan Africa,Botswana,Clothes,Offline,Slow,680517470,73.44,668083.68
65,Sub-Saharan Africa,Tanzania,Personal Care,Online,Medium,400304734,25.060005,198500.26
66,Europe,Romania,Office Supplies,Offline,Slow,810871112,126.25,459045.00
67,Sub-Saharan Africa,Mali,Cereal,Online,UltraFast,235702931,88.59,760988.10
68,Sub-Saharan Africa,Central African Republic,Office Supplies,Offline,Slow,668599021,126.25,273078.75
69,Sub-Saharan Africa,Niger,Baby Food,Online,Medium,123670709,95.86,552728.76
70,Europe,Austria,Office Supplies,Online,UltraFast,285341823,126.25,989926.25
71,Asia,India,Fruits,Online,Fast,658348691,2.4099998,21357.42
72,Europe,Luxembourg,Baby Food,Offline,UltraFast,817740142,95.86,607273.10
73,Sub-Saharan Africa,Cape Verde,Beverages,Offline,Fast,858877503,15.66,153374.04
74,Europe,Sweden,Vegetables,Offline,Medium,947434604,63.129997,366659.04
75,Europe,Iceland,Meat,Offline,Fast,869397771,57.200012,170170.00
76,Middle East and North Africa,Qatar,Personal Care,Offline,UltraFast,481065833,25.060005,173540.50
77,Sub-Saharan Africa,South Sudan,Meat,Online,Slow,159050118,57.200012,304246.80
78,Europe,United Kingdom,Office Supplies,Online,Medium,350274455,126.25,359812.50
79,Middle East and North Africa,Tunisia,Cereal,Online,UltraFast,221975171,88.59,552890.19
80,North America,United States of America,Office Supplies,Online,Slow,811701095,126.25,1167433.75
81,Sub-Saharan Africa,Liberia,Cereal,Online,UltraFast,977313554,88.59,677979.27
82,Sub-Saharan Africa,Eritrea,Snacks,Offline,UltraFast,546986377,55.14,235944.06
83,Asia,South Korea,Fruits,Offline,UltraFast,769205892,2.4099998,9572.52
84,Sub-Saharan Africa,Kenya,Clothes,Offline,Medium,262770926,73.44,632391.84
85,Sub-Saharan Africa,Rwanda,Snacks,Online,Medium,866792809,55.14,116290.26
86,Central America and the Caribbean,Cuba,Beverages,Offline,Slow,890695369,15.66,84689.28
87,Middle East and North Africa,Libya,Cereal,Offline,Medium,964214932,88.59,131113.20
88,Europe,Czech Republic,Snacks,Online,Slow,887400329,55.14,18306.48
89,Europe,Montenegro,Beverages,Offline,Medium,980612885,15.66,62624.34
90,Europe,Montenegro,Clothes,Offline,Medium,734526431,73.44,113758.56
91,Asia,Philippines,Baby Food,Online,UltraFast,160127294,95.86,391012.94
92,Central America and the Caribbean,El Salvador,Clothes,Offline,UltraFast,238714301,73.44,713910.24
93,Australia and Oceania,Tonga,Household,Online,Medium,671898782,165.73001,1431078.55
94,Sub-Saharan Africa,Democratic Republic of the Congo,Personal Care,Offline,Fast,331604564,25.060005,200830.84
95,Middle East and North Africa,Afghanistan,Cereal,Online,Medium,410067975,88.59,627305.79
96,Australia and Oceania,Tuvalu,Snacks,Offline,UltraFast,369837844,55.14,115297.74
97,Sub-Saharan Africa,Sudan,Fruits,Online,UltraFast,193775498,2.4099998,3207.71
98,Sub-Saharan Africa,Niger,Clothes,Online,Medium,835054767,73.44,8592.48
99,Sub-Saharan Africa,Gabon,Household,Offline,Slow,167161977,165.73001,960902.54
100,Australia and Oceania,East Timor,Vegetables,Offline,Slow,633895957,63.129997,173923.15
101,North America,United States of America,Clothes,Offline,Slow,699368035,73.44,543309.12
102,Middle East and North Africa,Jordan,Vegetables,Offline,UltraFast,698002040,63.129997,200122.10
103,Europe,Cyprus,Snacks,Offline,Fast,584534299,55.14,305696.16
104,Sub-Saharan Africa,Malawi,Vegetables,Online,UltraFast,384013640,63.129997,443488.25
105,Europe,Iceland,Personal Care,Online,Medium,641801393,25.060005,53853.94
106,Middle East and North Africa,Israel,Personal Care,Online,Medium,173571383,25.060005,62249.04
107,Middle East and North Africa,United Arab Emirates,Snacks,Offline,Fast,115309941,55.14,89823.06
108,Asia,China,Cosmetics,Offline,UltraFast,773315894,173.87003,37034.31
109,Sub-Saharan Africa,Kenya,Beverages,Online,Medium,274200570,15.66,14047.02
110,Middle East and North Africa,Somalia,Clothes,Offline,Medium,414887797,73.44,247786.56
111,Australia and Oceania,Tonga,Beverages,Offline,UltraFast,812613904,15.66,146687.22
112,Asia,Bangladesh,Baby Food,Online,Fast,254927718,95.86,731603.52
113,Middle East and North Africa,Egypt,Beverages,Offline,Medium,749690568,15.66,140219.64
114,Sub-Saharan Africa,Eritrea,Cereal,Offline,Slow,775076282,88.59,101878.50
115,Sub-Saharan Africa,Swaziland,Office Supplies,Online,Fast,229571187,126.25,513963.75
116,Asia,Vietnam,Baby Food,Online,Slow,881974112,95.86,440380.84
117,Australia and Oceania,Marshall Islands,Snacks,Online,UltraFast,521396386,55.14,89988.48
118,Asia,Taiwan,Household,Online,Slow,607261836,165.73001,186777.71
119,Europe,Ireland,Vegetables,Online,Medium,419306790,63.129997,66412.76
120,Sub-Saharan Africa,Rwanda,Meat,Offline,Fast,207580077,57.200012,366823.60
121,Europe,Sweden,Snacks,Online,Medium,742443025,55.14,234069.30
122,Sub-Saharan Africa,Gabon,Snacks,Offline,Medium,164569461,55.14,475031.10
123,Sub-Saharan Africa,South Africa,Baby Food,Online,UltraFast,734945714,95.86,539116.64
124,Europe,United Kingdom,Clothes,Offline,Slow,284870612,73.44,616822.56
125,Europe,Albania,Fruits,Offline,Medium,765955483,2.4099998,5070.64
126,Asia,Malaysia,Snacks,Offline,Fast,600124156,55.14,492345.06
127,Sub-Saharan Africa,Ghana,Household,Offline,UltraFast,529612958,165.73001,513431.54
128,Central America and the Caribbean,Cuba,Clothes,Offline,Fast,466970717,73.44,430872.48
129,Central America and the Caribbean,Saint Lucia,Cosmetics,Online,Slow,845058763,173.87003,90760.14
130,Europe,Romania,Snacks,Offline,UltraFast,367050921,55.14,406878.06
131,Europe,Portugal,Office Supplies,Online,UltraFast,956433522,126.25,1109485.00
132,Europe,Macedonia,Beverages,Online,Slow,107005393,15.66,64660.14
133,Asia,China,Beverages,Offline,Slow,332877862,15.66,75340.26
134,Europe,Germany,Baby Food,Online,UltraFast,618474757,95.86,889484.94
135,Europe,Ireland,Household,Online,Medium,468532407,165.73001,1326834.38
136,Europe,Poland,Office Supplies,Offline,Medium,358099639,126.25,1072620.00
137,Sub-Saharan Africa,Namibia,Household,Online,Fast,382537782,165.73001,47233.05
138,Asia,Uzbekistan,Personal Care,Offline,Fast,707520663,25.060005,249146.52
139,Sub-Saharan Africa,Zimbabwe,Meat,Online,Medium,219034612,57.200012,346860.80
140,Asia,Mongolia,Meat,Offline,Medium,573378455,57.200012,244873.20
141,Europe,Norway,Personal Care,Online,Fast,347163522,25.060005,56535.36
142,Middle East and North Africa,Oman,Snacks,Offline,Medium,887313640,55.14,258000.06
143,Europe,Serbia,Cosmetics,Online,Fast,461065137,173.87003,1438774.25
144,Sub-Saharan Africa,Democratic Republic of the Congo,Fruits,Offline,Fast,105966842,2.4099998,16383.18
145,Europe,Bulgaria,Baby Food,Online,Medium,479880082,95.86,578515.10
146,Asia,Brunei,Baby Food,Online,Fast,510978686,95.86,843855.58
147,Europe,Serbia,Snacks,Offline,Slow,547748982,55.14,548698.14
148,Sub-Saharan Africa,Ghana,Cereal,Offline,Medium,108989799,88.59,120305.22
149,Sub-Saharan Africa,Malawi,Cereal,Offline,Medium,133812463,88.59,614460.24
150,Sub-Saharan Africa,Zimbabwe,Fruits,Offline,UltraFast,731640803,2.4099998,18381.07
151,Europe,Cyprus,Snacks,Offline,Slow,732211148,55.14,353171.70
152,Central America and the Caribbean,Nicaragua,Cereal,Online,Medium,835572326,88.59,290043.66
153,Europe,Estonia,Baby Food,Offline,Slow,462085664,95.86,25978.06
154,Europe,Estonia,Clothes,Online,Slow,902424991,73.44,474642.72
155,Europe,Lithuania,Fruits,Offline,Fast,367576634,2.4099998,7107.09
156,Sub-Saharan Africa,Republic of the Congo,Meat,Offline,Fast,738839423,57.200012,449534.80
157,Europe,Czech Republic,Baby Food,Online,Slow,817824685,95.86,129698.58
158,Sub-Saharan Africa,Cameroon,Snacks,Online,Slow,376456248,55.14,34407.36
159,Asia,Vietnam,Office Supplies,Online,Fast,606970441,126.25,618246.25
160,Europe,Moldova,Meat,Offline,UltraFast,971916091,57.200012,24252.80
161,Middle East and North Africa,Bahrain,Office Supplies,Offline,UltraFast,554154527,126.25,693617.50
162,Europe,Hungary,Household,Online,UltraFast,306859576,165.73001,898753.79
163,Australia and Oceania,Marshall Islands,Personal Care,Offline,UltraFast,803517568,25.060005,189428.54
164,Middle East and North Africa,Iraq,Office Supplies,Online,Slow,887927329,126.25,793228.75
165,Europe,Albania,Vegetables,Online,Fast,824200189,63.129997,505418.78
166,Sub-Saharan Africa,Lesotho,Office Supplies,Online,Fast,946759974,126.25,778962.50
167,Middle East and North Africa,Lebanon,Clothes,Offline,Fast,310343015,73.44,458926.56
168,Europe,Hungary,Vegetables,Online,Slow,739998137,63.129997,47221.24
169,Asia,Japan,Beverages,Online,Fast,981086671,15.66,65818.98
170,Europe,Georgia,Office Supplies,Offline,UltraFast,749282443,126.25,1032725.00
171,Europe,Estonia,Office Supplies,Online,Slow,280571782,126.25,792850.00
172,Europe,Luxembourg,Household,Online,Slow,781253516,165.73001,1513280.63
173,Sub-Saharan Africa,Swaziland,Personal Care,Online,Fast,377938973,25.060005,235463.76
174,Europe,Romania,Clothes,Offline,Slow,867551982,73.44,496821.60
175,Sub-Saharan Africa,Ethiopia,Personal Care,Offline,Slow,967328870,25.060005,74277.84
176,Sub-Saharan Africa,Chad,Office Supplies,Offline,Slow,364818465,126.25,851682.50
177,Middle East and North Africa,Morocco,Office Supplies,Online,Slow,167882096,126.25,1123372.50
178,North America,Mexico,Clothes,Online,Fast,654693591,73.44,531485.28
179,Sub-Saharan Africa,Nigeria,Personal Care,Offline,Fast,823739278,25.060005,40396.72
180,Central America and the Caribbean,Trinidad and Tobago,Beverages,Offline,UltraFast,643817985,15.66,139436.64
181,Europe,Moldova,Personal Care,Offline,Fast,604041039,25.060005,201031.32
182,Australia and Oceania,Solomon Islands,Personal Care,Online,Fast,363832271,25.060005,123019.54
183,Asia,India,Personal Care,Online,UltraFast,102928006,25.060005,188927.34
184,Sub-Saharan Africa,Burkina Faso,Office Supplies,Offline,Medium,971377074,126.25,115771.25
185,Australia and Oceania,Kiribati,Meat,Online,UltraFast,139540803,57.200012,118918.80
186,Middle East and North Africa,Israel,Meat,Offline,Medium,248093020,57.200012,291319.60
187,Sub-Saharan Africa,Comoros,Snacks,Offline,UltraFast,858020055,55.14,333927.84
188,Middle East and North Africa,Iran,Baby Food,Offline,Fast,700620734,95.86,776370.14
189,Asia,Vietnam,Cosmetics,Offline,UltraFast,827506387,173.87003,1109986.08
190,Central America and the Caribbean,Belize,Household,Online,Medium,560600841,165.73001,513928.73
191,Europe,Belarus,Personal Care,Offline,Fast,642140424,25.060005,62048.56
192,North America,United States of America,Baby Food,Offline,Slow,984673964,95.86,552441.18
193,Europe,Poland,Beverages,Online,UltraFast,221062791,15.66,97828.02
194,North America,Canada,Vegetables,Offline,UltraFast,654480731,63.129997,268113.11
195,Middle East and North Africa,Israel,Beverages,Offline,Slow,608414113,15.66,33058.26
196,Middle East and North Africa,Lebanon,Household,Online,UltraFast,276661765,165.73001,1527864.87
197,Europe,Andorra,Baby Food,Online,UltraFast,373335015,95.86,669294.52
198,Europe,Slovakia,Clothes,Online,UltraFast,782857692,73.44,282229.92
199,Sub-Saharan Africa,Liberia,Fruits,Online,Fast,109966123,2.4099998,660.34
200,Central America and the Caribbean,Antigua and Barbuda,Cereal,Offline,Medium,629709136,88.59,335047.38
201,Asia,China,Personal Care,Online,UltraFast,637448060,25.060005,97759.06
202,Sub-Saharan Africa,Niger,Baby Food,Online,Fast,298856723,95.86,690192.00
203,Europe,United Kingdom,Household,Offline,UltraFast,299921452,165.73001,377532.94
204,Asia,Bangladesh,Personal Care,Offline,Medium,496941077,25.060005,119360.78
205,Asia,Myanmar,Snacks,Online,UltraFast,366526925,55.14,127759.38
206,Australia and Oceania,Tonga,Meat,Offline,Medium,355602824,57.200012,551007.60
207,Sub-Saharan Africa,Guinea-Bissau,Vegetables,Online,Slow,531405103,63.129997,216788.42
208,Australia and Oceania,Nauru,Vegetables,Offline,Medium,131482589,63.129997,471896.75
209,Sub-Saharan Africa,Swaziland,Cereal,Online,UltraFast,713696610,88.59,668145.78
210,Europe,Finland,Vegetables,Online,Slow,306220996,63.129997,407314.76
211,Australia and Oceania,Papua New Guinea,Household,Offline,UltraFast,157542073,165.73001,1500685.15
212,Sub-Saharan Africa,Mauritius,Personal Care,Online,UltraFast,686458671,25.060005,181183.80
213,Sub-Saharan Africa,Mozambique,Office Supplies,Online,Medium,132082116,126.25,617110.00
214,Europe,Bulgaria,Clothes,Online,UltraFast,403836238,73.44,218263.68
215,Europe,Spain,Household,Online,Slow,331457364,165.73001,738327.15
216,Australia and Oceania,Vanuatu,Meat,Online,Fast,614994323,57.200012,534305.20
217,Europe,Belgium,Fruits,Offline,UltraFast,674808442,2.4099998,23302.29
218,Europe,Belgium,Baby Food,Offline,UltraFast,901573550,95.86,431657.58
219,Sub-Saharan Africa,Guinea-Bissau,Clothes,Online,UltraFast,406275975,73.44,363087.36
220,Sub-Saharan Africa,Togo,Vegetables,Online,Slow,170214545,63.129997,575808.73
221,Sub-Saharan Africa,Cote d'Ivoire,Personal Care,Offline,Slow,795000588,25.060005,180331.76
222,Sub-Saharan Africa,Republic of the Congo,Fruits,Offline,Slow,252557933,2.4099998,15327.60
223,Middle East and North Africa,Libya,Baby Food,Offline,Medium,635122907,95.86,559534.82
224,Australia and Oceania,East Timor,Vegetables,Online,Slow,505244338,63.129997,118810.66
225,Europe,Switzerland,Clothes,Offline,Fast,745783555,73.44,204310.08
226,Australia and Oceania,Palau,Snacks,Offline,Medium,509914386,55.14,212454.42
227,Middle East and North Africa,Jordan,Household,Online,Medium,371123158,165.73001,405209.85
228,Europe,Slovenia,Household,Online,Fast,973208701,165.73001,486583.28
229,Asia,South Korea,Baby Food,Online,UltraFast,780282342,95.86,166700.54
230,Europe,Norway,Clothes,Online,Fast,126767909,73.44,168618.24
231,Middle East and North Africa,Afghanistan,Baby Food,Online,Medium,767401731,95.86,7668.80
232,Asia,Bangladesh,Personal Care,Online,UltraFast,927232635,25.060005,190380.82
233,Sub-Saharan Africa,Guinea,Meat,Offline,Medium,251621949,57.200012,536593.20
234,Central America and the Caribbean,Cuba,Office Supplies,Offline,Fast,256243503,126.25,884002.50
235,Europe,Russia,Cosmetics,Offline,Slow,277083623,173.87003,705216.72
236,Sub-Saharan Africa,Seychelles,Vegetables,Offline,UltraFast,620441138,63.129997,74177.75
237,Asia,South Korea,Office Supplies,Offline,Medium,312927377,126.25,128775.00
238,Sub-Saharan Africa,Ghana,Baby Food,Offline,UltraFast,251466166,95.86,314612.52
239,Central America and the Caribbean,Costa Rica,Office Supplies,Online,Fast,953293836,126.25,1222731.25
240,Europe,Romania,Cereal,Online,Slow,305959212,88.59,795981.15
241,Europe,Czech Republic,Cereal,Online,UltraFast,317323625,88.59,174256.53
242,Europe,Liechtenstein,Household,Offline,UltraFast,365560901,165.73001,1068792.77
243,Sub-Saharan Africa,Seychelles,Baby Food,Online,Medium,349157369,95.86,218464.94
244,Middle East and North Africa,Somalia,Baby Food,Online,UltraFast,236911857,95.86,607560.68
245,Australia and Oceania,Solomon Islands,Personal Care,Offline,Fast,517935693,25.060005,188852.16
246,Sub-Saharan Africa,Uganda,Clothes,Offline,Slow,851652705,73.44,133367.04
247,Sub-Saharan Africa,Equatorial Guinea,Cereal,Offline,Medium,517799222,88.59,633507.09
248,Central America and the Caribbean,Costa Rica,Office Supplies,Offline,Slow,666424071,126.25,1079058.75
249,Europe,Moldova,Fruits,Offline,Slow,267888581,2.4099998,7323.99
250,Sub-Saharan Africa,Burkina Faso,Vegetables,Online,UltraFast,162866580,63.129997,296395.35
251,Central America and the Caribbean,Guatemala,Beverages,Offline,Fast,812344396,15.66,150555.24
252,Sub-Saharan Africa,Swaziland,Meat,Online,Medium,947620856,57.200012,52852.80
253,Asia,Maldives,Vegetables,Online,Fast,720307290,63.129997,239199.57
254,Asia,Thailand,Household,Online,Fast,352327525,165.73001,66126.27
255,Sub-Saharan Africa,Sudan,Household,Online,Slow,585917890,165.73001,825169.67
256,Central America and the Caribbean,Costa Rica,Meat,Offline,UltraFast,433627212,57.200012,502387.60
257,Europe,Denmark,Beverages,Online,Slow,328316819,15.66,79834.68
258,Sub-Saharan Africa,Angola,Cereal,Offline,Slow,773160541,88.59,375621.60
259,Australia and Oceania,Papua New Guinea,Household,Online,Medium,991644704,165.73001,1418483.07
260,Asia,North Korea,Meat,Online,Medium,277568137,57.200012,425282.00
261,Central America and the Caribbean,El Salvador,Fruits,Online,Slow,245042169,2.4099998,5489.98
262,Sub-Saharan Africa,Burkina Faso,Household,Online,Medium,778490626,165.73001,253732.63
263,Middle East and North Africa,Yemen,Baby Food,Online,Slow,482649838,95.86,543334.48
264,Sub-Saharan Africa,Republic of the Congo,Beverages,Online,UltraFast,732568633,15.66,34342.38
265,Europe,Andorra,Household,Online,Medium,723608338,165.73001,106398.66
266,Central America and the Caribbean,Dominican Republic,Household,Offline,Fast,621442782,165.73001,1256896.32
267,Middle East and North Africa,Israel,Baby Food,Offline,Medium,212058293,95.86,154909.76
268,Australia and Oceania,Solomon Islands,Snacks,Offline,UltraFast,251753699,55.14,461466.66
269,Sub-Saharan Africa,Liberia,Fruits,Online,Medium,217140328,2.4099998,13262.23
270,Sub-Saharan Africa,Mali,Vegetables,Online,Slow,555142009,63.129997,486858.56
271,Asia,Uzbekistan,Clothes,Online,Slow,432995069,73.44,126169.92
272,Middle East and North Africa,Tunisia,Personal Care,Offline,Fast,888248336,25.060005,31976.56
273,Europe,Vatican City,Vegetables,Online,Slow,778763139,63.129997,137181.49
274,Sub-Saharan Africa,Djibouti,Snacks,Offline,Fast,832713305,55.14,398496.78
275,Europe,Ukraine,Household,Offline,Medium,498585164,165.73001,212963.05
276,Australia and Oceania,East Timor,Fruits,Offline,Medium,195177543,2.4099998,15007.07
277,Sub-Saharan Africa,Uganda,Cereal,Online,Slow,861601769,88.59,528439.35
278,Sub-Saharan Africa,Guinea,Meat,Online,Fast,807281672,57.200012,82425.20
279,Sub-Saharan Africa,Equatorial Guinea,Clothes,Offline,Fast,661953580,73.44,413393.76
280,Europe,Malta,Cosmetics,Online,Medium,225666320,173.87003,1483806.58
281,Europe,Cyprus,Household,Offline,UltraFast,718781220,165.73001,363114.43
282,Europe,Czech Republic,Office Supplies,Online,UltraFast,731972110,126.25,715585.00
283,Middle East and North Africa,Libya,Vegetables,Online,Slow,276225316,63.129997,4040.32
284,Asia,Vietnam,Office Supplies,Offline,Slow,332839667,126.25,443011.25
285,Middle East and North Africa,Jordan,Vegetables,Online,Slow,603426492,63.129997,389070.19
286,Sub-Saharan Africa,Mali,Beverages,Offline,Fast,859909617,15.66,81745.20
287,Europe,Czech Republic,Household,Online,UltraFast,494525372,165.73001,1641058.46
288,Europe,Slovakia,Vegetables,Online,Medium,769822585,63.129997,408135.45
289,Sub-Saharan Africa,Zimbabwe,Vegetables,Offline,Slow,768662583,63.129997,201700.35
290,Central America and the Caribbean,Honduras,Cereal,Online,Medium,544219195,88.59,479183.31
291,Europe,Switzerland,Beverages,Offline,UltraFast,669978749,15.66,7125.30
292,Sub-Saharan Africa,South Africa,Cosmetics,Offline,UltraFast,889740073,173.87003,472057.05
293,Sub-Saharan Africa,Uganda,Beverages,Online,Medium,567614495,15.66,134644.68
294,Middle East and North Africa,Iran,Vegetables,Offline,Medium,938025844,63.129997,97662.11
295,Middle East and North Africa,Algeria,Vegetables,Online,Slow,155710446,63.129997,444182.68
296,Sub-Saharan Africa,Central African Republic,Baby Food,Online,UltraFast,945717132,95.86,725660.20
297,Central America and the Caribbean,The Bahamas,Cosmetics,Offline,Slow,253407227,173.87003,1336190.95
298,Sub-Saharan Africa,South Africa,Household,Offline,Fast,494454562,165.73001,1482952.04
299,Sub-Saharan Africa,Benin,Cereal,Online,Medium,104845464,88.59,439140.63
300,Europe,Hungary,Cosmetics,Online,Medium,290878760,173.87003,1103031.28
301,Europe,Austria,Office Supplies,Offline,Slow,979165780,126.25,728210.00
302,Asia,Tajikistan,Office Supplies,Offline,Slow,366630351,126.25,369028.75
303,Europe,Portugal,Office Supplies,Online,Slow,770508801,126.25,1203415.00
304,Europe,Belgium,Beverages,Offline,Medium,978349959,15.66,68105.34
305,Europe,Slovenia,Beverages,Offline,UltraFast,298015153,15.66,127801.26
306,Europe,Czech Republic,Snacks,Online,Medium,807678210,55.14,484460.04
307,Australia and Oceania,Marshall Islands,Personal Care,Offline,Slow,605825459,25.060005,152139.26
308,Sub-Saharan Africa,Sudan,Fruits,Online,Slow,561255729,2.4099998,16621.77
309,Central America and the Caribbean,Dominican Republic,Clothes,Online,Fast,263080346,73.44,12852.00
310,Sub-Saharan Africa,Tanzania,Cereal,Offline,Slow,270723140,88.59,163714.32
311,Europe,Switzerland,Clothes,Offline,Fast,763920438,73.44,726174.72
312,North America,Greenland,Household,Online,UltraFast,192721068,165.73001,1541620.46
313,Australia and Oceania,Tonga,Fruits,Offline,UltraFast,227486360,2.4099998,17168.84
314,Middle East and North Africa,Saudi Arabia,Vegetables,Online,Medium,808890140,63.129997,468550.86
315,Central America and the Caribbean,Belize,Cosmetics,Offline,Slow,597918736,173.87003,1094685.52
316,Sub-Saharan Africa,Angola,Cosmetics,Online,Fast,125870978,173.87003,1195182.38
317,Asia,Malaysia,Household,Online,Fast,444358193,165.73001,715787.87
318,Sub-Saharan Africa,Ethiopia,Beverages,Online,Slow,875304210,15.66,12872.52
319,North America,Greenland,Baby Food,Offline,Slow,360945355,95.86,58187.02
320,Sub-Saharan Africa,Benin,Cereal,Offline,Slow,613830459,88.59,436571.52
321,Middle East and North Africa,Yemen,Cereal,Offline,Fast,266820847,88.59,626597.07
322,Sub-Saharan Africa,Rwanda,Baby Food,Offline,Medium,723090350,95.86,705337.88
323,Sub-Saharan Africa,Mauritania,Meat,Offline,Medium,306125295,57.200012,465150.40
324,Australia and Oceania,New Zealand,Personal Care,Online,UltraFast,109724509,25.060005,219901.50
325,Australia and Oceania,Samoa,Clothes,Offline,Medium,847999322,73.44,51334.56
326,Australia and Oceania,Fiji,Clothes,Online,Fast,605373561,73.44,172143.36
327,Sub-Saharan Africa,Malawi,Beverages,Online,Fast,686583554,15.66,65552.76
328,Australia and Oceania,Marshall Islands,Beverages,Offline,Medium,666678130,15.66,58396.14
329,Central America and the Caribbean,Grenada,Baby Food,Online,Medium,641018617,95.86,48696.88
330,Europe,Luxembourg,Meat,Online,Slow,775278842,57.200012,62519.60
331,Sub-Saharan Africa,Zimbabwe,Meat,Offline,Medium,855445134,57.200012,233376.00
332,Asia,China,Vegetables,Online,Fast,737816321,63.129997,321963.00
333,North America,United States of America,Beverages,Online,UltraFast,799003732,15.66,28422.90
334,Sub-Saharan Africa,Central African Republic,Vegetables,Online,UltraFast,585931193,63.129997,562867.08
335,Central America and the Caribbean,Antigua and Barbuda,Vegetables,Online,Medium,165835034,63.129997,197407.51
336,Central America and the Caribbean,Guatemala,Baby Food,Offline,Fast,576264083,95.86,786339.58
337,Middle East and North Africa,Qatar,Clothes,Offline,UltraFast,675079667,73.44,729259.20
338,Middle East and North Africa,Israel,Personal Care,Online,UltraFast,290455615,25.060005,28217.56
339,Asia,Thailand,Snacks,Offline,UltraFast,670878255,55.14,366074.46
340,Asia,Singapore,Cereal,Online,Medium,435146415,88.59,739637.91
341,Asia,North Korea,Snacks,Online,Slow,522371423,55.14,9208.38
342,Europe,Austria,Office Supplies,Online,UltraFast,141977107,126.25,383295.00
343,Asia,Japan,Baby Food,Offline,UltraFast,823699796,95.86,951793.94
344,Sub-Saharan Africa,Zimbabwe,Beverages,Offline,UltraFast,567588317,15.66,13326.66
345,Europe,Lithuania,Fruits,Offline,Fast,594003999,2.4099998,18889.58
346,Europe,Luxembourg,Baby Food,Offline,Fast,393620669,95.86,954573.88
347,Sub-Saharan Africa,Central African Republic,Cosmetics,Offline,Fast,877424657,173.87003,1444685.83
348,Europe,Norway,Household,Offline,Medium,326714789,165.73001,169210.33
349,Sub-Saharan Africa,Democratic Republic of the Congo,Fruits,Offline,Medium,243102395,2.4099998,19896.96
350,Australia and Oceania,New Zealand,Household,Offline,UltraFast,398511302,165.73001,1194084.65
351,Europe,Ukraine,Personal Care,Offline,Medium,185177838,25.060005,177725.52
352,Asia,Taiwan,Personal Care,Offline,Fast,865650832,25.060005,104575.38
353,Europe,Italy,Cereal,Offline,Slow,622791612,88.59,596476.47
354,Europe,Finland,Personal Care,Online,UltraFast,409774005,25.060005,2230.34
355,Sub-Saharan Africa,Sudan,Office Supplies,Online,Fast,800084340,126.25,200863.75
356,Europe,Croatia,Snacks,Offline,Medium,637521445,55.14,309776.52
357,Sub-Saharan Africa,Mauritania,Beverages,Online,UltraFast,186196649,15.66,134378.46
358,Australia and Oceania,New Zealand,Baby Food,Offline,UltraFast,680533778,95.86,376058.78
359,Middle East and North Africa,Pakistan,Beverages,Online,UltraFast,275269162,15.66,111452.22
360,Europe,Poland,Household,Online,Slow,795451629,165.73001,110707.64
361,Europe,Lithuania,Cereal,Offline,Medium,986442506,88.59,807320.67
362,Middle East and North Africa,Pakistan,Cereal,Offline,Medium,563915622,88.59,356043.21
363,Australia and Oceania,East Timor,Cosmetics,Offline,Slow,663857305,173.87003,1562048.08
364,Australia and Oceania,Marshall Islands,Fruits,Online,UltraFast,692566382,2.4099998,11177.58
365,Central America and the Caribbean,Cuba,Household,Offline,UltraFast,576654183,165.73001,603588.66
366,North America,Greenland,Baby Food,Offline,Fast,313044536,95.86,545347.54
367,Europe,Luxembourg,Personal Care,Offline,Slow,418973767,25.060005,62725.18
368,Middle East and North Africa,Israel,Beverages,Online,Slow,581990706,15.66,44443.08
369,Sub-Saharan Africa,Djibouti,Baby Food,Online,Fast,109956681,95.86,717032.80
370,Europe,Bulgaria,Cereal,Online,UltraFast,181045520,88.59,376241.73
371,Asia,Mongolia,Vegetables,Online,Slow,693743550,63.129997,188632.44
372,Central America and the Caribbean,Dominican Republic,Clothes,Offline,UltraFast,716849601,73.44,42742.08
373,Middle East and North Africa,Yemen,Cosmetics,Online,UltraFast,739474999,173.87003,1032787.80
374,Australia and Oceania,Federated States of Micronesia,Personal Care,Online,Medium,421043574,25.060005,125425.30
375,Europe,Finland,Personal Care,Online,Medium,841291654,25.060005,144120.06
376,Central America and the Caribbean,The Bahamas,Cereal,Offline,UltraFast,450268065,88.59,281804.79
377,Central America and the Caribbean,Grenada,Meat,Online,UltraFast,918334138,57.200012,247904.80
378,Sub-Saharan Africa,Sao Tome and Principe,Meat,Offline,Medium,386163699,57.200012,187330.00
379,Central America and the Caribbean,El Salvador,Personal Care,Offline,Slow,214743077,25.060005,152941.18
380,Europe,Sweden,Baby Food,Online,Medium,935371100,95.86,570271.14
381,Asia,Turkmenistan,Cosmetics,Offline,Fast,899659097,173.87003,1386439.38
382,Europe,Monaco,Vegetables,Online,Fast,329530894,63.129997,275814.97
383,Middle East and North Africa,Turkey,Meat,Online,Fast,867222821,57.200012,535334.80
384,Sub-Saharan Africa,Mozambique,Beverages,Online,Medium,625283706,15.66,65756.34
385,Middle East and North Africa,Yemen,Office Supplies,Offline,Slow,936574876,126.25,274341.25
386,Asia,Philippines,Cereal,Offline,Medium,504270160,88.59,319012.59
387,Sub-Saharan Africa,Democratic Republic of the Congo,Personal Care,Offline,Medium,351855885,25.060005,20799.80
388,Australia and Oceania,Fiji,Snacks,Online,Fast,673130881,55.14,178708.74
389,Europe,Macedonia,Office Supplies,Offline,Fast,382206475,126.25,283305.00
390,Middle East and North Africa,Tunisia,Cereal,Online,Fast,263506495,88.59,556610.97
391,Europe,Liechtenstein,Cereal,Offline,UltraFast,721767270,88.59,516391.11
392,Middle East and North Africa,Qatar,Cosmetics,Online,Medium,432037627,173.87003,1458769.30
393,Australia and Oceania,Tonga,Meat,Offline,Slow,389678895,57.200012,200142.80
394,Europe,Belgium,Meat,Online,UltraFast,760364902,57.200012,441927.20
395,Sub-Saharan Africa,Chad,Fruits,Offline,Slow,430081975,2.4099998,23302.29
396,Asia,Thailand,Baby Food,Online,Fast,155128943,95.86,475178.02
397,Europe,Iceland,Clothes,Offline,Fast,312117135,73.44,91873.44
398,Central America and the Caribbean,Saint Lucia,Meat,Offline,UltraFast,447970378,57.200012,185614.00
399,Asia,Japan,Cosmetics,Offline,Slow,629925000,173.87003,1332018.07
400,Asia,India,Personal Care,Offline,UltraFast,995529830,25.060005,206845.24
401,Australia and Oceania,Vanuatu,Office Supplies,Online,UltraFast,402646195,126.25,102515.00
402,Sub-Saharan Africa,Chad,Meat,Offline,Medium,479447925,57.200012,466180.00
403,Sub-Saharan Africa,Malawi,Cosmetics,Offline,Fast,674421346,173.87003,889866.66
404,Europe,Finland,Cosmetics,Online,UltraFast,506365287,173.87003,625236.52
405,Middle East and North Africa,Turkey,Clothes,Online,Slow,914391076,73.44,550359.36
406,Sub-Saharan Africa,South Africa,Meat,Online,UltraFast,207922542,57.200012,443586.00
407,Europe,Lithuania,Office Supplies,Offline,Medium,816696012,126.25,928316.25
408,Europe,Russia,Beverages,Offline,UltraFast,740760314,15.66,98548.38
409,Central America and the Caribbean,The Bahamas,Baby Food,Online,Slow,300476777,95.86,633634.60
410,Central America and the Caribbean,The Bahamas,Snacks,Online,UltraFast,786519229,55.14,406547.22
411,Middle East and North Africa,Turkey,Cosmetics,Offline,Slow,409873998,173.87003,1682887.73
412,Sub-Saharan Africa,Mauritius,Cosmetics,Offline,Fast,151839911,173.87003,288450.33
413,Europe,Bulgaria,Vegetables,Online,Fast,614028298,63.129997,219250.49
414,Middle East and North Africa,Iran,Household,Offline,UltraFast,668362987,165.73001,383664.95
415,Sub-Saharan Africa,Ghana,Household,Online,Medium,607080304,165.73001,1227727.84
416,Sub-Saharan Africa,Malawi,Baby Food,Online,Medium,792729079,95.86,479875.16
417,Sub-Saharan Africa,Zimbabwe,Baby Food,Offline,Medium,308170640,95.86,325444.70
418,Asia,Tajikistan,Vegetables,Online,Fast,106578814,63.129997,498348.22
419,Europe,Czech Republic,Cereal,Online,Fast,761439931,88.59,518340.09
420,Sub-Saharan Africa,Mauritius,Household,Online,UltraFast,216552817,165.73001,272791.58
421,Sub-Saharan Africa,Lesotho,Fruits,Online,Fast,536028802,2.4099998,4070.49
422,Sub-Saharan Africa,Mali,Beverages,Online,UltraFast,254291713,15.66,147579.84
423,Europe,Georgia,Personal Care,Online,Slow,226077878,25.060005,8094.38
424,Europe,Albania,Office Supplies,Offline,Medium,476436126,126.25,870115.00
425,Europe,Cyprus,Cosmetics,Offline,UltraFast,650727784,173.87003,637581.29
426,Central America and the Caribbean,Saint Kitts and Nevis,Household,Offline,Slow,464626681,165.73001,367091.95
427,Middle East and North Africa,Tunisia,Meat,Offline,Slow,154119145,57.200012,350922.00
428,Central America and the Caribbean,Cuba,Meat,Online,Medium,925504004,57.200012,346460.40
429,Australia and Oceania,Kiribati,Cereal,Offline,UltraFast,905392587,88.59,411146.19
430,Asia,Cambodia,Snacks,Online,Slow,990708720,55.14,87176.34
431,Europe,Moldova,Baby Food,Online,Medium,798688733,95.86,824396.00
432,Asia,Uzbekistan,Cereal,Offline,Slow,916881453,88.59,394402.68
433,Asia,India,Cosmetics,Offline,UltraFast,653148210,173.87003,1725485.88
434,Europe,Germany,Personal Care,Offline,Slow,285662829,25.060005,71020.04
435,Europe,Austria,Vegetables,Online,Slow,612911641,63.129997,191283.90
436,Europe,Germany,Office Supplies,Offline,UltraFast,703693473,126.25,933113.75
437,Asia,Bhutan,Clothes,Online,Medium,147119653,73.44,354641.76
438,Asia,Kyrgyzstan,Fruits,Online,Slow,402614009,2.4099998,3101.67
439,Middle East and North Africa,Somalia,Personal Care,Online,Slow,749912869,25.060005,118734.28
440,Central America and the Caribbean,Saint Lucia,Household,Online,Fast,539065062,165.73001,30825.78
441,Europe,Armenia,Snacks,Offline,Fast,540431916,55.14,257393.52
442,North America,Canada,Beverages,Online,Slow,694687259,15.66,35266.32
443,Sub-Saharan Africa,Burundi,Cosmetics,Offline,Fast,562817418,173.87003,1571089.32
444,Europe,Liechtenstein,Cereal,Online,UltraFast,676121222,88.59,721919.91
445,Middle East and North Africa,Tunisia,Snacks,Offline,UltraFast,286210000,55.14,262135.56
446,Middle East and North Africa,Iraq,Beverages,Online,UltraFast,515007579,15.66,16317.72
447,Asia,Indonesia,Cosmetics,Offline,Slow,304750287,173.87003,215077.19
448,Asia,Kazakhstan,Beverages,Online,Fast,467986953,15.66,103262.04
449,Europe,Denmark,Beverages,Offline,Slow,537578904,15.66,6248.34
450,Europe,Luxembourg,Vegetables,Offline,UltraFast,116699969,63.129997,187432.97
451,Sub-Saharan Africa,Cape Verde,Snacks,Offline,Slow,228836476,55.14,366846.42
452,Australia and Oceania,Palau,Vegetables,Offline,Slow,167787253,63.129997,52524.16
453,Australia and Oceania,Australia,Vegetables,Online,Medium,647663629,63.129997,436543.95
454,Central America and the Caribbean,Nicaragua,Meat,Offline,UltraFast,652889430,57.200012,191391.20
455,Asia,Laos,Office Supplies,Offline,Medium,588200986,126.25,75497.50
456,Central America and the Caribbean,Cuba,Personal Care,Online,UltraFast,928647124,25.060005,154770.56
457,Europe,Moldova,Cosmetics,Offline,UltraFast,869589173,173.87003,1671760.05
458,Middle East and North Africa,Syria,Household,Online,Slow,576700961,165.73001,1240489.05
459,Central America and the Caribbean,The Bahamas,Cereal,Offline,Medium,735968816,88.59,742561.38
460,Europe,Belarus,Snacks,Offline,Medium,303691565,55.14,437701.32
461,Middle East and North Africa,United Arab Emirates,Clothes,Offline,Slow,556480538,73.44,279953.28
462,Sub-Saharan Africa,Angola,Beverages,Offline,Fast,141259562,15.66,10930.68
463,Central America and the Caribbean,Cuba,Cosmetics,Offline,Slow,925264966,173.87003,924988.40
464,Europe,Ukraine,Office Supplies,Online,Fast,346045577,126.25,180663.75
465,Sub-Saharan Africa,Mozambique,Fruits,Offline,Fast,861462724,2.4099998,11611.38
466,Europe,Armenia,Personal Care,Online,Medium,499690234,25.060005,207972.94
467,North America,Greenland,Clothes,Online,Fast,509214437,73.44,493663.68
468,Central America and the Caribbean,Saint Kitts and Nevis,Office Supplies,Online,Medium,408834159,126.25,248460.00
469,Europe,Vatican City,Beverages,Offline,Medium,237660729,15.66,124434.36
470,Europe,Ukraine,Clothes,Online,Slow,105117976,73.44,411264.00
471,Sub-Saharan Africa,Niger,Cereal,Offline,UltraFast,640942227,88.59,700126.77
472,Asia,Myanmar,Cosmetics,Online,UltraFast,745182311,173.87003,845008.20
473,Sub-Saharan Africa,Guinea,Baby Food,Offline,Slow,738199555,95.86,815576.88
474,Sub-Saharan Africa,Guinea-Bissau,Snacks,Online,UltraFast,110667788,55.14,436322.82
475,Sub-Saharan Africa,South Sudan,Office Supplies,Online,Slow,673573338,126.25,526967.50
476,Middle East and North Africa,Turkey,Snacks,Offline,Fast,708215034,55.14,298913.94
477,Australia and Oceania,Palau,Household,Online,Medium,816204202,165.73001,300965.68
478,Europe,Poland,Beverages,Offline,UltraFast,769464671,15.66,8613.00
479,Asia,Malaysia,Beverages,Offline,UltraFast,860232770,15.66,13279.68
480,North America,United States of America,Personal Care,Offline,Slow,551057326,25.060005,224612.78
481,Europe,Switzerland,Cosmetics,Online,Slow,724799668,173.87003,553428.21
482,Australia and Oceania,Papua New Guinea,Cosmetics,Offline,Fast,534633624,173.87003,1534402.75
483,Sub-Saharan Africa,Namibia,Beverages,Offline,Fast,554045522,15.66,50691.42
484,Europe,Ireland,Clothes,Online,Slow,526834189,73.44,58678.56
485,Sub-Saharan Africa,Mozambique,Household,Online,Slow,717110955,165.73001,1312913.06
486,Sub-Saharan Africa,Democratic Republic of the Congo,Baby Food,Offline,UltraFast,559299647,95.86,771577.14
487,North America,United States of America,Meat,Online,Medium,908136594,57.200012,380608.80
488,Middle East and North Africa,Azerbaijan,Office Supplies,Offline,Medium,888670623,126.25,787800.00
489,Europe,Belgium,Office Supplies,Offline,Slow,146263062,126.25,169806.25
490,Asia,Taiwan,Office Supplies,Offline,UltraFast,196587741,126.25,446420.00
491,Central America and the Caribbean,Panama,Baby Food,Online,Medium,375630986,95.86,614558.46
492,Europe,Andorra,Beverages,Offline,Fast,989691627,15.66,9396.00
493,Europe,Georgia,Household,Offline,Fast,165380990,165.73001,1452623.45
494,Central America and the Caribbean,Barbados,Snacks,Online,Slow,599622905,55.14,32918.58
495,Europe,Sweden,Personal Care,Offline,Slow,109653699,25.060005,195994.26
496,Middle East and North Africa,Algeria,Meat,Offline,Medium,183022201,57.200012,525725.20
497,Europe,Italy,Personal Care,Online,UltraFast,127589738,25.060005,137679.64
498,Europe,Russia,Fruits,Offline,UltraFast,221530139,2.4099998,10955.86
499,Central America and the Caribbean,Antigua and Barbuda,Office Supplies,Offline,Medium,363329732,126.25,782371.25
500,Middle East and North Africa,Jordan,Fruits,Online,Slow,521787345,2.4099998,17653.25
501,Sub-Saharan Africa,Mali,Meat,Online,UltraFast,286014306,57.200012,391476.80
502,Middle East and North Africa,Somalia,Cereal,Offline,Slow,215434443,88.59,61481.46
503,Middle East and North Africa,Kuwait,Snacks,Online,UltraFast,489784085,55.14,377709.00
504,Sub-Saharan Africa,Liberia,Office Supplies,Offline,Slow,459112060,126.25,39895.00
505,Asia,China,Office Supplies,Online,Slow,893779695,126.25,1026160.00
506,Europe,Andorra,Meat,Offline,Medium,834460818,57.200012,249106.00
507,Sub-Saharan Africa,Niger,Beverages,Online,Slow,742141759,15.66,79756.38
508,Europe,Hungary,Vegetables,Offline,Medium,248121345,63.129997,219376.75
509,Europe,Monaco,Clothes,Offline,Medium,404010903,73.44,342156.96
510,Australia and Oceania,Tuvalu,Household,Online,UltraFast,531734263,165.73001,139213.20
511,Sub-Saharan Africa,South Sudan,Baby Food,Online,Slow,473527753,95.86,598166.40
512,Europe,Cyprus,Cereal,Offline,Medium,141940200,88.59,187279.26
513,Europe,Poland,Household,Offline,Medium,869832932,165.73001,289861.77
514,Sub-Saharan Africa,Liberia,Snacks,Online,Fast,460379779,55.14,301174.68
515,Sub-Saharan Africa,Cote d'Ivoire,Vegetables,Online,Slow,837067067,63.129997,353654.26
516,Asia,Kyrgyzstan,Beverages,Online,Slow,393693625,15.66,24226.02
517,Europe,Slovakia,Vegetables,Offline,UltraFast,744370782,63.129997,297405.43
518,Asia,Malaysia,Cosmetics,Offline,Medium,873522365,173.87003,614456.58
519,Sub-Saharan Africa,Liberia,Beverages,Online,UltraFast,285884702,15.66,132969.06
520,Australia and Oceania,Vanuatu,Cosmetics,Online,Fast,356506621,173.87003,1232042.82
521,Australia and Oceania,Kiribati,Baby Food,Offline,UltraFast,280749452,95.86,848936.16
522,Middle East and North Africa,Turkey,Baby Food,Online,Medium,224287021,95.86,35276.48
523,Europe,San Marino,Fruits,Offline,Medium,873105657,2.4099998,532.61
524,Europe,Vatican City,Snacks,Offline,Slow,283504188,55.14,222986.16
525,Middle East and North Africa,Morocco,Beverages,Offline,Slow,632093942,15.66,148754.34
526,Sub-Saharan Africa,Equatorial Guinea,Meat,Offline,UltraFast,565798747,57.200012,73044.40
527,Middle East and North Africa,Jordan,Vegetables,Online,Medium,151854932,63.129997,385345.52
528,Asia,Kyrgyzstan,Vegetables,Online,Fast,427811324,63.129997,488184.29
529,Sub-Saharan Africa,Republic of the Congo,Fruits,Online,UltraFast,251529252,2.4099998,4699.50
530,Australia and Oceania,East Timor,Snacks,Offline,Slow,351182544,55.14,86790.36
531,Europe,Estonia,Meat,Offline,Fast,175257527,57.200012,83054.40
532,Asia,Bangladesh,Snacks,Online,Fast,142553031,55.14,191060.10
533,Sub-Saharan Africa,Senegal,Fruits,Offline,Fast,292180383,2.4099998,3670.43
534,Middle East and North Africa,Pakistan,Fruits,Offline,UltraFast,733563411,2.4099998,15831.29
535,Europe,Czech Republic,Beverages,Online,Fast,296438443,15.66,24711.48
536,Sub-Saharan Africa,Ghana,Meat,Offline,Slow,580854308,57.200012,374774.40
537,Asia,Japan,Cosmetics,Offline,Fast,107172334,173.87003,613761.10
538,Asia,Kazakhstan,Baby Food,Offline,Fast,166066348,95.86,151267.08
539,Central America and the Caribbean,The Bahamas,Snacks,Offline,Fast,768522679,55.14,98921.16
540,Sub-Saharan Africa,Ethiopia,Household,Online,Medium,195840156,165.73001,382670.57
541,Sub-Saharan Africa,Burkina Faso,Cosmetics,Offline,UltraFast,849630105,173.87003,570989.08
542,Sub-Saharan Africa,Madagascar,Fruits,Offline,Medium,701816356,2.4099998,4603.10
543,Europe,Netherlands,Office Supplies,Online,Medium,944635236,126.25,935891.25
544,Europe,Greece,Vegetables,Online,UltraFast,140635573,63.129997,381683.98
545,Middle East and North Africa,Egypt,Meat,Online,Slow,972678697,57.200012,348691.20
546,Sub-Saharan Africa,South Sudan,Fruits,Online,Medium,793938434,2.4099998,6940.80
547,Europe,Kosovo,Baby Food,Online,UltraFast,177901113,95.86,359187.42
548,Asia,Brunei,Beverages,Online,UltraFast,668365561,15.66,48185.82
549,Australia and Oceania,Australia,Vegetables,Online,Slow,729443109,63.129997,459649.53
550,Sub-Saharan Africa,Cape Verde,Fruits,Offline,Fast,695557582,2.4099998,23618.00
551,Sub-Saharan Africa,Malawi,Household,Offline,Fast,521445310,165.73001,1012610.30
552,Asia,Philippines,Personal Care,Online,UltraFast,232155120,25.060005,218372.84
553,Europe,Estonia,Beverages,Online,UltraFast,373048341,15.66,33653.34
554,Central America and the Caribbean,Trinidad and Tobago,Office Supplies,Offline,UltraFast,659798800,126.25,1007727.50
555,Asia,Mongolia,Household,Online,Slow,428392827,165.73001,1626142.76
556,Asia,Japan,Personal Care,Offline,Medium,885129249,25.060005,207221.14
557,Sub-Saharan Africa,Niger,Meat,Online,Slow,156619393,57.200012,344000.80
558,Middle East and North Africa,Egypt,Baby Food,Offline,Medium,939787089,95.86,262560.54
559,Central America and the Caribbean,Saint Lucia,Vegetables,Online,Slow,151868665,63.129997,10605.84
560,Middle East and North Africa,Qatar,Cereal,Offline,Slow,180412948,88.59,625002.45
561,Sub-Saharan Africa,Mali,Fruits,Offline,Fast,333281266,2.4099998,10093.08
562,Central America and the Caribbean,Saint Lucia,Cosmetics,Online,UltraFast,888647449,173.87003,1631422.21
563,Sub-Saharan Africa,Swaziland,Clothes,Offline,Medium,844997823,73.44,182718.72
564,Asia,Mongolia,Fruits,Online,Medium,171131217,2.4099998,927.85
565,Sub-Saharan Africa,Botswana,Office Supplies,Online,Slow,256158959,126.25,250353.75
566,Europe,San Marino,Cosmetics,Online,Fast,759504878,173.87003,560904.62
567,Middle East and North Africa,Oman,Fruits,Online,Slow,960905301,2.4099998,5029.67
568,Asia,Bangladesh,Office Supplies,Offline,Slow,210409057,126.25,450712.50
569,Sub-Saharan Africa,Namibia,Cosmetics,Offline,Slow,178377473,173.87003,819449.31
570,Asia,Mongolia,Fruits,Online,Medium,805484378,2.4099998,23092.62
571,Asia,North Korea,Beverages,Online,Slow,752716100,15.66,66962.16
572,Europe,Latvia,Clothes,Online,Medium,551371467,73.44,141372.00
573,Sub-Saharan Africa,Burundi,Snacks,Offline,Medium,353061807,55.14,423971.46
574,Sub-Saharan Africa,Seychelles,Personal Care,Online,Slow,379710948,25.060005,94275.72
575,Sub-Saharan Africa,Kenya,Cereal,Online,Fast,473555219,88.59,386961.12
576,Sub-Saharan Africa,Benin,Office Supplies,Online,Slow,547143447,126.25,95950.00
577,Central America and the Caribbean,Saint Lucia,Personal Care,Online,Slow,133336961,25.060005,155998.50
578,Middle East and North Africa,Qatar,Meat,Online,Fast,635309588,57.200012,61776.00
579,Sub-Saharan Africa,Mozambique,Beverages,Online,Slow,376547658,15.66,120190.50
580,Middle East and North Africa,Pakistan,Clothes,Offline,Medium,450849997,73.44,395694.72
581,Asia,Taiwan,Personal Care,Online,Medium,672327935,25.060005,141112.86
582,Central America and the Caribbean,Cuba,Cereal,Offline,UltraFast,925405299,88.59,606575.73
583,Central America and the Caribbean,Cuba,Household,Offline,Fast,714818418,165.73001,1575926.57
584,Europe,Russia,Beverages,Offline,Slow,515616118,15.66,17570.52
585,Europe,Switzerland,Cereal,Offline,Slow,423159730,88.59,108256.98
586,Europe,Czech Republic,Personal Care,Offline,Fast,603123080,25.060005,159807.62
587,Europe,Poland,Meat,Offline,Slow,841492497,57.200012,296582.00
588,Sub-Saharan Africa,Mauritius,Cereal,Offline,UltraFast,994566810,88.59,290132.25
589,Middle East and North Africa,Pakistan,Vegetables,Offline,Medium,538957345,63.129997,524610.30
590,Sub-Saharan Africa,South Africa,Fruits,Offline,UltraFast,821587932,2.4099998,12004.21
591,Sub-Saharan Africa,Seychelles,Household,Online,Slow,109694898,165.73001,2154.49
592,Sub-Saharan Africa,Benin,Meat,Offline,Medium,340827071,57.200012,409494.80
593,Sub-Saharan Africa,Benin,Meat,Offline,UltraFast,372845780,57.200012,126240.40
594,Central America and the Caribbean,Nicaragua,Fruits,Online,Medium,933924853,2.4099998,19214.93
595,Middle East and North Africa,Lebanon,Office Supplies,Online,UltraFast,572550618,126.25,1174882.50
596,Europe,Moldova,Meat,Online,Medium,607521903,57.200012,462519.20
597,Middle East and North Africa,Tunisia,Snacks,Online,Fast,177950036,55.14,453526.50
598,Australia and Oceania,Vanuatu,Beverages,Offline,Medium,293258845,15.66,10398.24
599,Sub-Saharan Africa,South Sudan,Beverages,Online,Slow,683184659,15.66,131183.82
600,Europe,Sweden,Cereal,Online,UltraFast,247776305,88.59,121368.30
601,Europe,Ireland,Meat,Offline,Slow,207395112,57.200012,95924.40
602,Europe,Italy,Vegetables,Offline,UltraFast,952714908,63.129997,528208.71
603,Europe,Bosnia and Herzegovina,Vegetables,Online,Slow,694722020,63.129997,160287.07
604,Europe,Bosnia and Herzegovina,Household,Online,Fast,414715278,165.73001,384659.33
605,Europe,Poland,Snacks,Offline,Medium,714306008,55.14,434282.64
606,Middle East and North Africa,Kuwait,Snacks,Online,Fast,465418040,55.14,352675.44
607,Sub-Saharan Africa,Sudan,Cereal,Online,Medium,860287702,88.59,629254.77
608,Middle East and North Africa,Saudi Arabia,Vegetables,Online,Slow,461463820,63.129997,394815.02
609,Sub-Saharan Africa,Swaziland,Baby Food,Offline,Medium,151807725,95.86,204565.24
610,Sub-Saharan Africa,Rwanda,Meat,Offline,Slow,884493243,57.200012,3489.20
611,Asia,Cambodia,Cosmetics,Offline,Medium,533006703,173.87003,1283682.21
612,Sub-Saharan Africa,Central African Republic,Vegetables,Online,Slow,641146934,63.129997,535342.40
613,Asia,Maldives,Cosmetics,Offline,Medium,573025262,173.87003,1697666.68
614,Sub-Saharan Africa,Djibouti,Household,Offline,Slow,663065516,165.73001,774953.48
615,Asia,Tajikistan,Beverages,Online,Medium,866004025,15.66,136101.06
616,Asia,Sri Lanka,Baby Food,Online,Fast,306889617,95.86,413348.32
617,Europe,Montenegro,Personal Care,Online,Medium,431083619,25.060005,152289.62
618,Middle East and North Africa,United Arab Emirates,Personal Care,Online,Fast,954259860,25.060005,139158.18
619,Central America and the Caribbean,Dominican Republic,Personal Care,Offline,Slow,312404668,25.060005,158830.28
620,Sub-Saharan Africa,Seychelles,Office Supplies,Offline,Slow,611816871,126.25,1144203.75
621,Europe,Iceland,Office Supplies,Online,Slow,879107797,126.25,806485.00
622,Sub-Saharan Africa,Nigeria,Vegetables,Offline,Slow,211201274,63.129997,505355.65
623,Sub-Saharan Africa,Rwanda,Fruits,Online,Fast,925333631,2.4099998,13589.99
624,Europe,Hungary,Snacks,Offline,Slow,909053695,55.14,443546.16
625,Europe,Belarus,Baby Food,Online,UltraFast,370222795,95.86,575831.02
626,Sub-Saharan Africa,South Sudan,Cosmetics,Offline,Fast,487014758,173.87003,1276901.28
627,Europe,Andorra,Vegetables,Online,Medium,257915914,63.129997,120262.65
628,Asia,Japan,Meat,Offline,Medium,551725089,57.200012,375746.80
629,Central America and the Caribbean,El Salvador,Meat,Offline,UltraFast,957553613,57.200012,14185.60
630,Sub-Saharan Africa,Kenya,Office Supplies,Offline,UltraFast,234825313,126.25,1121478.75
631,Europe,Bosnia and Herzegovina,Snacks,Online,Medium,363276517,55.14,24757.86
632,Europe,Andorra,Personal Care,Online,Medium,692956054,25.060005,249347.00
633,Sub-Saharan Africa,Cape Verde,Cosmetics,Online,Fast,194225251,173.87003,769027.01
634,Australia and Oceania,Nauru,Fruits,Online,UltraFast,607757937,2.4099998,19120.94
635,Europe,Czech Republic,Cereal,Offline,Fast,594540441,88.59,583187.97
636,Europe,Serbia,Vegetables,Online,UltraFast,685871589,63.129997,220955.00
637,Australia and Oceania,Tuvalu,Cereal,Offline,Slow,133362710,88.59,340539.96
638,Sub-Saharan Africa,Madagascar,Clothes,Offline,Fast,958937633,73.44,720446.40
639,Sub-Saharan Africa,Ethiopia,Vegetables,Online,Slow,304832684,63.129997,354790.60
640,Asia,Malaysia,Baby Food,Offline,UltraFast,783596694,95.86,242525.80
641,Sub-Saharan Africa,Tanzania,Household,Offline,Slow,128090989,165.73001,633917.25
642,Sub-Saharan Africa,Cote d'Ivoire,Vegetables,Offline,Medium,641489398,63.129997,620125.99
643,Australia and Oceania,Solomon Islands,Clothes,Offline,Medium,647278249,73.44,210993.12
644,Europe,Netherlands,Clothes,Online,Fast,339256370,73.44,172877.76
645,Sub-Saharan Africa,Mali,Baby Food,Offline,Medium,431535089,95.86,927637.22
646,Middle East and North Africa,Afghanistan,Cereal,Offline,Slow,808538234,88.59,291106.74
647,Europe,Moldova,Personal Care,Online,Slow,975002133,25.060005,91544.18
648,Asia,Bhutan,Snacks,Online,Fast,505975615,55.14,456724.62
649,Asia,Vietnam,Vegetables,Offline,Medium,396820008,63.129997,423854.82
650,Europe,Portugal,Vegetables,Online,Fast,813209140,63.129997,347909.43
651,Europe,Spain,Baby Food,Online,Medium,641129338,95.86,313749.78
652,Middle East and North Africa,Egypt,Meat,Offline,Slow,636879432,57.200012,322150.40
653,Europe,Belgium,Snacks,Online,Slow,277070748,55.14,13564.44
654,Asia,Malaysia,Cosmetics,Offline,Fast,908627116,173.87003,314704.70
655,Central America and the Caribbean,Dominican Republic,Cosmetics,Offline,Slow,798784863,173.87003,1225261.89
656,Europe,Estonia,Beverages,Offline,Fast,985092818,15.66,152074.26
657,Sub-Saharan Africa,Burundi,Snacks,Offline,Slow,325412309,55.14,308122.32
658,Europe,Latvia,Beverages,Online,Medium,447917163,15.66,117403.02
659,Asia,Tajikistan,Meat,Offline,Medium,801093709,57.200012,16302.00
660,Sub-Saharan Africa,Zimbabwe,Fruits,Offline,Fast,903740775,2.4099998,14057.53
661,Sub-Saharan Africa,Comoros,Meat,Offline,UltraFast,794969689,57.200012,460574.40
662,Sub-Saharan Africa,Namibia,Clothes,Online,UltraFast,584204280,73.44,579000.96
663,Europe,Slovenia,Cereal,Offline,Fast,901180875,88.59,735474.18
664,Europe,Bulgaria,Snacks,Offline,UltraFast,645948302,55.14,513463.68
665,Sub-Saharan Africa,Guinea-Bissau,Cereal,Online,UltraFast,138867890,88.59,261340.50
666,Sub-Saharan Africa,Lesotho,Beverages,Offline,UltraFast,670613467,15.66,129696.12
667,Asia,Sri Lanka,Cosmetics,Offline,UltraFast,452171361,173.87003,1114332.83
668,Australia and Oceania,East Timor,Snacks,Online,Fast,464840400,55.14,301009.26
669,Europe,Belarus,Household,Online,Medium,410231912,165.73001,927093.62
670,Sub-Saharan Africa,Benin,Meat,Offline,Fast,960269725,57.200012,229143.20
671,Europe,Ireland,Beverages,Offline,UltraFast,607190167,15.66,155331.54
672,Middle East and North Africa,Iran,Meat,Offline,Fast,613542068,57.200012,548376.40
673,Sub-Saharan Africa,Benin,Household,Offline,Slow,962186753,165.73001,214951.81
674,Sub-Saharan Africa,South Sudan,Beverages,Online,UltraFast,806298053,15.66,5731.56
675,Sub-Saharan Africa,Comoros,Personal Care,Online,UltraFast,719362294,25.060005,103848.64
676,Europe,Poland,Baby Food,Online,Fast,445178306,95.86,671786.88
677,Europe,Bosnia and Herzegovina,Cosmetics,Offline,Slow,247857415,173.87003,934029.64
678,Sub-Saharan Africa,Namibia,Vegetables,Offline,Slow,461823451,63.129997,168999.01
679,Europe,Spain,Office Supplies,Offline,Slow,141812741,126.25,554995.00
680,Middle East and North Africa,Iran,Meat,Online,Slow,212874114,57.200012,173659.20
681,Central America and the Caribbean,Guatemala,Office Supplies,Offline,Slow,320368897,126.25,395288.75
682,Australia and Oceania,East Timor,Beverages,Online,Slow,179970920,15.66,97859.34
683,Middle East and North Africa,Bahrain,Household,Online,Fast,927666509,165.73001,992722.70
684,Sub-Saharan Africa,Ethiopia,Office Supplies,Online,UltraFast,169754493,126.25,376477.50
685,Australia and Oceania,Solomon Islands,Personal Care,Offline,Medium,532846200,25.060005,247743.16
686,Central America and the Caribbean,Belize,Snacks,Online,Slow,213865458,55.14,352730.58
687,Asia,Sri Lanka,Office Supplies,Online,Slow,630048596,126.25,534795.00
688,Central America and the Caribbean,Costa Rica,Clothes,Offline,Fast,568944442,73.44,158483.52
689,Sub-Saharan Africa,Nigeria,Baby Food,Online,UltraFast,238414323,95.86,91162.86
690,Middle East and North Africa,Iran,Office Supplies,Online,UltraFast,816632068,126.25,1064413.75
691,Sub-Saharan Africa,Djibouti,Baby Food,Online,Slow,402084004,95.86,426289.42
692,Asia,South Korea,Snacks,Online,UltraFast,763568961,55.14,324168.06
693,Central America and the Caribbean,Dominica,Snacks,Offline,UltraFast,590198266,55.14,90264.18
694,Asia,Vietnam,Snacks,Online,UltraFast,441395747,55.14,422648.10
695,Europe,Norway,Personal Care,Offline,Fast,496897733,25.060005,48516.16
696,Central America and the Caribbean,Haiti,Beverages,Online,Slow,106753051,15.66,148065.30
697,Central America and the Caribbean,Jamaica,Fruits,Offline,UltraFast,941323029,2.4099998,17491.78
698,Sub-Saharan Africa,Sudan,Vegetables,Offline,Medium,241281497,63.129997,594179.56
699,Sub-Saharan Africa,Angola,Meat,Offline,UltraFast,267614781,57.200012,115315.20
700,Central America and the Caribbean,Panama,Cosmetics,Offline,Medium,651621711,173.87003,1425734.00
701,Europe,Greece,Personal Care,Online,Medium,644913613,25.060005,78287.44
702,Sub-Saharan Africa,Madagascar,Cereal,Offline,Fast,469414317,88.59,795803.97
703,Sub-Saharan Africa,Guinea-Bissau,Clothes,Online,UltraFast,867360150,73.44,734253.12
704,North America,Greenland,Clothes,Online,UltraFast,851299941,73.44,545292.00
705,Middle East and North Africa,Libya,Beverages,Offline,Fast,854095017,15.66,71253.00
706,Europe,Belarus,Vegetables,Offline,Slow,478919208,63.129997,106752.83
707,Middle East and North Africa,Lebanon,Clothes,Offline,Fast,749258840,73.44,87834.24
708,Sub-Saharan Africa,Djibouti,Baby Food,Offline,Fast,958912742,95.86,234281.84
709,Central America and the Caribbean,Barbados,Personal Care,Online,Slow,921992242,25.060005,171610.88
710,Sub-Saharan Africa,Guinea-Bissau,Vegetables,Online,UltraFast,522921168,63.129997,179857.37
711,Europe,Finland,Personal Care,Offline,Slow,166435849,25.060005,23080.26
712,Central America and the Caribbean,Haiti,Baby Food,Offline,UltraFast,327585113,95.86,821424.34
713,Sub-Saharan Africa,Niger,Clothes,Offline,Medium,201730287,73.44,391435.20
714,Central America and the Caribbean,Trinidad and Tobago,Fruits,Offline,UltraFast,854545199,2.4099998,18723.29
715,Central America and the Caribbean,Grenada,Personal Care,Online,Medium,272016179,25.060005,112444.22
716,Central America and the Caribbean,Dominican Republic,Cereal,Offline,Fast,110442054,88.59,98600.67
717,Europe,Monaco,Household,Offline,Slow,746434152,165.73001,879694.84
718,Europe,Estonia,Vegetables,Online,UltraFast,826916301,63.129997,111361.32
719,Europe,Italy,Beverages,Offline,Fast,419124829,15.66,112845.96
720,Asia,Malaysia,Office Supplies,Online,Slow,560608565,126.25,680108.75
721,Sub-Saharan Africa,Ghana,Office Supplies,Offline,UltraFast,109228837,126.25,264493.75
722,Middle East and North Africa,Pakistan,Clothes,Offline,Slow,693159472,73.44,10722.24
723,Asia,Sri Lanka,Snacks,Offline,UltraFast,860886800,55.14,242064.60
724,Europe,Romania,Fruits,Offline,Slow,131209647,2.4099998,16159.05
725,Middle East and North Africa,Qatar,Office Supplies,Online,Fast,343239343,126.25,126755.00
726,Sub-Saharan Africa,Cote d'Ivoire,Clothes,Online,Fast,706399714,73.44,604264.32
727,Middle East and North Africa,Egypt,Office Supplies,Online,Medium,950427091,126.25,170690.00
728,Middle East and North Africa,Iran,Snacks,Offline,Fast,875370299,55.14,20898.06
729,Middle East and North Africa,Somalia,Clothes,Online,Slow,801590669,73.44,539563.68
730,Middle East and North Africa,Syria,Personal Care,Offline,Slow,219762027,25.060005,33129.32
731,Australia and Oceania,Solomon Islands,Cereal,Offline,Slow,940870702,88.59,301560.36
732,Central America and the Caribbean,Guatemala,Fruits,Online,Medium,346215522,2.4099998,4147.61
733,Middle East and North Africa,Kuwait,Clothes,Offline,Slow,837407815,73.44,472659.84
734,Middle East and North Africa,Jordan,Meat,Online,UltraFast,386371409,57.200012,271185.20
735,Australia and Oceania,Marshall Islands,Beverages,Offline,Fast,185342633,15.66,91751.94
736,Middle East and North Africa,Egypt,Snacks,Offline,Slow,596870315,55.14,333321.30
737,Europe,Switzerland,Meat,Online,Slow,703815782,57.200012,205062.00
738,Australia and Oceania,Samoa,Personal Care,Online,Slow,559352862,25.060005,95152.82
739,Europe,Portugal,Cosmetics,Offline,Slow,736967885,173.87003,700522.23
740,Europe,Albania,Clothes,Offline,Slow,980459678,73.44,636063.84
741,Central America and the Caribbean,Dominica,Vegetables,Offline,Slow,653939568,63.129997,259148.65
742,Australia and Oceania,Tuvalu,Cosmetics,Online,Fast,991831386,173.87003,661227.61
743,Australia and Oceania,Marshall Islands,Cereal,Online,UltraFast,148871457,88.59,285879.93
744,Europe,Bulgaria,Fruits,Online,Fast,850108611,2.4099998,11770.44
745,Sub-Saharan Africa,Niger,Office Supplies,Offline,Medium,940904176,126.25,417761.25
746,Central America and the Caribbean,Saint Vincent and the Grenadines,Office Supplies,Offline,Fast,136931979,126.25,8837.50
747,Sub-Saharan Africa,Malawi,Beverages,Offline,UltraFast,474178349,15.66,137275.56
748,Sub-Saharan Africa,Cape Verde,Personal Care,Offline,UltraFast,458942115,25.060005,626.50
749,Central America and the Caribbean,Saint Vincent and the Grenadines,Beverages,Offline,Slow,917834603,15.66,101946.60
750,Europe,Greece,Personal Care,Offline,Fast,947779643,25.060005,198299.78
751,Europe,Monaco,Clothes,Online,UltraFast,166013562,73.44,437482.08
752,Sub-Saharan Africa,Nigeria,Beverages,Online,UltraFast,960085189,15.66,147157.02
753,Europe,Norway,Cosmetics,Offline,Slow,837855851,173.87003,1568307.40
754,North America,Greenland,Snacks,Offline,UltraFast,977499377,55.14,145735.02
755,Middle East and North Africa,Tunisia,Beverages,Online,UltraFast,377502095,15.66,1785.24
756,Asia,Uzbekistan,Meat,Offline,Fast,806662833,57.200012,475503.60
757,Central America and the Caribbean,Saint Kitts and Nevis,Vegetables,Online,Fast,954092919,63.129997,388375.76
758,Central America and the Caribbean,Belize,Meat,Online,UltraFast,479216182,57.200012,547518.40
759,Sub-Saharan Africa,Angola,Personal Care,Online,Fast,461768949,25.060005,164092.88
760,Asia,Bhutan,Meat,Online,Slow,251800048,57.200012,119262.00
761,Central America and the Caribbean,Honduras,Personal Care,Offline,UltraFast,619670808,25.060005,80618.02
762,Sub-Saharan Africa,South Sudan,Household,Offline,Fast,606055057,165.73001,665240.22
763,Asia,Kyrgyzstan,Baby Food,Online,UltraFast,671939122,95.86,54927.78
764,Sub-Saharan Africa,Sao Tome and Principe,Cosmetics,Offline,Medium,448621833,173.87003,1047566.75
765,Sub-Saharan Africa,Madagascar,Fruits,Online,Medium,987714517,2.4099998,13327.30
766,Sub-Saharan Africa,Senegal,Household,Online,Fast,711141002,165.73001,212134.40
767,Sub-Saharan Africa,Sierra Leone,Office Supplies,Online,Slow,361137616,126.25,947001.25
768,Asia,Malaysia,Household,Offline,Fast,750253188,165.73001,902565.58
769,Central America and the Caribbean,Cuba,Office Supplies,Online,Slow,511349046,126.25,1060626.25
770,Sub-Saharan Africa,Zimbabwe,Personal Care,Offline,UltraFast,147599017,25.060005,167501.04
771,Europe,Serbia,Beverages,Online,Fast,682489430,15.66,41405.04
772,Asia,Maldives,Vegetables,Offline,Medium,509819114,63.129997,357315.80
773,Europe,Ireland,Office Supplies,Offline,Medium,343699395,126.25,901930.00
774,Europe,Romania,Clothes,Offline,UltraFast,968554103,73.44,406637.28
775,Europe,Croatia,Beverages,Online,Medium,989119565,15.66,20592.90
776,Europe,Albania,Vegetables,Offline,Medium,880444610,63.129997,124997.40
777,Central America and the Caribbean,Dominican Republic,Vegetables,Offline,UltraFast,737890565,63.129997,446392.23
778,Sub-Saharan Africa,Zimbabwe,Vegetables,Online,Medium,727131259,63.129997,199048.89
779,Sub-Saharan Africa,Ghana,Office Supplies,Offline,UltraFast,634153020,126.25,1114282.50
780,Asia,Laos,Beverages,Online,Fast,315254676,15.66,152199.54
781,Central America and the Caribbean,Panama,Personal Care,Offline,Medium,147047555,25.060005,87559.64
782,Sub-Saharan Africa,Angola,Household,Online,UltraFast,576455485,165.73001,802630.39
783,Middle East and North Africa,Syria,Snacks,Offline,UltraFast,770714795,55.14,27018.60
784,Sub-Saharan Africa,Sierra Leone,Cosmetics,Offline,Fast,867374312,173.87003,728341.43
785,Sub-Saharan Africa,Uganda,Fruits,Online,UltraFast,624295365,2.4099998,4162.07
786,Asia,Taiwan,Clothes,Offline,Medium,769651782,73.44,434838.24
787,Middle East and North Africa,Azerbaijan,Vegetables,Online,Slow,751929891,63.129997,102207.47
788,Asia,Maldives,Office Supplies,Online,Fast,989928519,126.25,88627.50
789,Sub-Saharan Africa,Mauritania,Meat,Offline,Fast,622758996,57.200012,405033.20
790,Sub-Saharan Africa,Burundi,Baby Food,Online,Fast,659845149,95.86,162770.28
791,Sub-Saharan Africa,Zambia,Baby Food,Offline,Fast,830923306,95.86,721442.36
792,Asia,Singapore,Beverages,Offline,UltraFast,936042296,15.66,71581.86
793,Sub-Saharan Africa,Ghana,Household,Online,UltraFast,395563447,165.73001,806939.37
794,Sub-Saharan Africa,Guinea,Meat,Offline,Medium,500160586,57.200012,428256.40
795,Sub-Saharan Africa,Zambia,Fruits,Online,UltraFast,360820043,2.4099998,8492.84
796,Europe,Georgia,Snacks,Online,Slow,958840644,55.14,61150.26
797,Middle East and North Africa,Bahrain,Baby Food,Online,Medium,195833718,95.86,38727.44
798,Sub-Saharan Africa,Lesotho,Personal Care,Offline,Medium,543723094,25.060005,215541.06
799,Central America and the Caribbean,Barbados,Cosmetics,Offline,Fast,494745099,173.87003,856135.88
800,Middle East and North Africa,Saudi Arabia,Vegetables,Online,Fast,411448562,63.129997,355295.64
801,Europe,Macedonia,Personal Care,Offline,Fast,276694810,25.060005,225489.88
802,Asia,Turkmenistan,Office Supplies,Offline,Medium,143657672,126.25,44440.00
803,Europe,Albania,Baby Food,Online,UltraFast,585823476,95.86,674854.40
804,Middle East and North Africa,Afghanistan,Clothes,Online,Slow,446991050,73.44,252633.60
805,Australia and Oceania,Kiribati,Clothes,Offline,Medium,891271722,73.44,437922.72
806,Middle East and North Africa,Morocco,Cosmetics,Online,Slow,453089320,173.87003,1400175.11
807,Europe,Norway,Baby Food,Offline,UltraFast,887180173,95.86,496842.38
808,Europe,Sweden,Cosmetics,Online,UltraFast,418593108,173.87003,1714010.46
809,Asia,Tajikistan,Personal Care,Online,Medium,492689454,25.060005,165721.78
810,Europe,Netherlands,Cosmetics,Online,Medium,825143039,173.87003,1220045.79
811,Europe,Spain,Vegetables,Online,UltraFast,751940190,63.129997,294627.71
812,Sub-Saharan Africa,Chad,Baby Food,Offline,Fast,579379737,95.86,18596.84
813,Europe,Ireland,Meat,Online,Slow,234073007,57.200012,358014.80
814,Middle East and North Africa,Pakistan,Meat,Online,Slow,612943828,57.200012,146088.80
815,Sub-Saharan Africa,Mozambique,Fruits,Online,Slow,433228528,2.4099998,1937.64
816,Middle East and North Africa,Bahrain,Fruits,Online,UltraFast,282475936,2.4099998,23526.42
817,Asia,Tajikistan,Meat,Online,Medium,368547379,57.200012,12240.80
818,Australia and Oceania,New Zealand,Meat,Offline,Fast,969616687,57.200012,570856.00
819,Sub-Saharan Africa,Niger,Baby Food,Online,UltraFast,184170186,95.86,853729.16
820,Europe,Armenia,Fruits,Online,Slow,681006705,2.4099998,9331.52
821,Sub-Saharan Africa,Gabon,Baby Food,Online,UltraFast,249237573,95.86,363405.26
822,Asia,Kyrgyzstan,Vegetables,Offline,Fast,348286616,63.129997,290650.52
823,Australia and Oceania,Fiji,Clothes,Offline,UltraFast,257890164,73.44,314690.40
824,Europe,Romania,Cosmetics,Online,Fast,228097045,173.87003,1362966.93
825,Sub-Saharan Africa,Botswana,Cereal,Online,Slow,129268586,88.59,203934.18
826,Australia and Oceania,Fiji,Cosmetics,Online,Medium,802078616,173.87003,302707.67
827,Europe,Vatican City,Clothes,Offline,Slow,907513463,73.44,165680.64
828,Asia,Thailand,Vegetables,Online,UltraFast,976871955,63.129997,440331.75
829,Europe,Belarus,Cereal,Offline,Slow,261765420,88.59,93905.40
830,Australia and Oceania,Solomon Islands,Vegetables,Offline,UltraFast,784117686,63.129997,423160.39
831,Asia,China,Cosmetics,Offline,Medium,586165082,173.87003,1413215.36
832,Sub-Saharan Africa,Angola,Snacks,Online,Slow,480456435,55.14,363427.74
833,Asia,Cambodia,Cereal,Online,UltraFast,899853074,88.59,476259.84
834,Central America and the Caribbean,Guatemala,Baby Food,Offline,UltraFast,547528827,95.86,460319.72
835,Sub-Saharan Africa,Namibia,Vegetables,Online,UltraFast,446970021,63.129997,455609.21
836,Europe,Serbia,Beverages,Offline,Fast,791975486,15.66,31335.66
837,Middle East and North Africa,Turkey,Vegetables,Offline,Medium,496656548,63.129997,35605.32
838,Middle East and North Africa,Pakistan,Vegetables,Offline,Slow,345437037,63.129997,85288.63
839,Europe,Georgia,Vegetables,Offline,Fast,743053281,63.129997,305107.29
840,Australia and Oceania,Vanuatu,Snacks,Offline,UltraFast,364554107,55.14,469572.24
841,Europe,Luxembourg,Cosmetics,Online,Fast,205300843,173.87003,336786.19
842,Middle East and North Africa,Saudi Arabia,Household,Online,Medium,430967319,165.73001,275277.53
843,Australia and Oceania,Vanuatu,Meat,Offline,Fast,827539861,57.200012,359730.80
844,Central America and the Caribbean,Haiti,Snacks,Offline,Fast,351317298,55.14,79953.00
845,Sub-Saharan Africa,Tanzania,Household,Offline,Slow,278910958,165.73001,796332.65
846,Asia,North Korea,Cosmetics,Offline,Slow,157244670,173.87003,182041.89
847,Middle East and North Africa,Bahrain,Beverages,Online,UltraFast,953554761,15.66,108038.34
848,Sub-Saharan Africa,Cote d'Ivoire,Cereal,Online,UltraFast,105390059,88.59,541727.85
849,Asia,Singapore,Cosmetics,Offline,UltraFast,970611894,173.87003,779459.21
850,Asia,Malaysia,Baby Food,Offline,Medium,677394092,95.86,462045.20
851,Europe,Albania,Baby Food,Online,UltraFast,474222981,95.86,189131.78
852,Sub-Saharan Africa,Gabon,Snacks,Online,UltraFast,779897391,55.14,431415.36
853,Europe,Poland,Snacks,Offline,UltraFast,733528649,55.14,346444.62
854,Sub-Saharan Africa,Chad,Office Supplies,Online,Fast,444540584,126.25,1046865.00
855,Sub-Saharan Africa,Republic of the Congo,Clothes,Online,Fast,542669522,73.44,501301.44
856,Asia,Philippines,Fruits,Offline,UltraFast,827964293,2.4099998,4550.08
857,Europe,France,Snacks,Offline,Medium,720786225,55.14,304152.24
858,Europe,Germany,Household,Offline,Fast,611809146,165.73001,1123152.21
859,Sub-Saharan Africa,Uganda,Personal Care,Online,Medium,512019383,25.060005,169631.14
860,Middle East and North Africa,Bahrain,Personal Care,Online,Slow,502715766,25.060005,90742.26
861,Middle East and North Africa,Jordan,Office Supplies,Offline,Medium,285509622,126.25,946496.25
862,Europe,Montenegro,Beverages,Offline,UltraFast,532324779,15.66,87476.76
863,Middle East and North Africa,Tunisia,Personal Care,Offline,Fast,635397565,25.060005,178276.84
864,Europe,Germany,Cereal,Offline,Medium,957276809,88.59,738397.65
865,Europe,Italy,Snacks,Online,UltraFast,580823838,55.14,415535.04
866,Europe,France,Office Supplies,Offline,Fast,459212481,126.25,4166.25
867,Middle East and North Africa,Algeria,Baby Food,Online,UltraFast,265929067,95.86,304355.50
868,Asia,Myanmar,Beverages,Online,Fast,644772422,15.66,21031.38
869,Europe,France,Vegetables,Offline,Slow,959853875,63.129997,59784.11
870,Europe,Spain,Vegetables,Online,Slow,645597255,63.129997,342732.77
871,Asia,Cambodia,Baby Food,Offline,Slow,556738889,95.86,25307.04
872,Sub-Saharan Africa,The Gambia,Vegetables,Online,Medium,718327605,63.129997,502262.28
873,Europe,Russia,Baby Food,Offline,UltraFast,775724732,95.86,291510.26
874,Europe,Belarus,Baby Food,Offline,Fast,444604098,95.86,679455.68
875,Middle East and North Africa,Turkey,Beverages,Online,Slow,860952031,15.66,57832.38
876,Sub-Saharan Africa,Kenya,Meat,Offline,Slow,531067359,57.200012,199513.60
877,Middle East and North Africa,Iran,Cosmetics,Offline,Medium,281561410,173.87003,1587954.71
878,Asia,Vietnam,Personal Care,Offline,UltraFast,109358012,25.060005,8044.26
879,Europe,Albania,Beverages,Online,UltraFast,531693494,15.66,137416.50
880,Central America and the Caribbean,Antigua and Barbuda,Clothes,Offline,Slow,336116683,73.44,238753.44
881,Sub-Saharan Africa,Senegal,Cereal,Offline,Medium,630488908,88.59,401667.06
882,Europe,Netherlands,Fruits,Online,UltraFast,792983996,2.4099998,1062.81
883,Europe,Russia,Fruits,Online,Slow,722088277,2.4099998,1981.02
884,Europe,Slovakia,Cosmetics,Online,Fast,386600577,173.87003,444585.59
885,Australia and Oceania,East Timor,Beverages,Offline,UltraFast,275632226,15.66,71346.96
886,Central America and the Caribbean,Haiti,Vegetables,Offline,Fast,948607051,63.129997,174301.93
887,Middle East and North Africa,Yemen,Cereal,Online,Fast,785261380,88.59,455972.73
888,Australia and Oceania,Tuvalu,Cereal,Online,Slow,935644042,88.59,595236.21
889,Sub-Saharan Africa,Liberia,Snacks,Offline,Medium,370116364,55.14,248791.68
890,Asia,North Korea,Beverages,Online,Slow,829352176,15.66,40622.04
891,Asia,North Korea,Household,Online,Medium,974337804,165.73001,1170550.99
892,Europe,Romania,Household,Online,Fast,436372077,165.73001,174016.50
893,Sub-Saharan Africa,Sao Tome and Principe,Cereal,Offline,Medium,267066323,88.59,860651.85
894,Middle East and North Africa,Bahrain,Fruits,Online,Medium,688344371,2.4099998,12654.91
895,Middle East and North Africa,Somalia,Cosmetics,Offline,Medium,642442548,173.87003,327049.47
896,Europe,Cyprus,Cereal,Online,Slow,941909682,88.59,76275.99
897,Europe,United Kingdom,Beverages,Offline,Slow,219607102,15.66,85769.82
898,Europe,Germany,Personal Care,Offline,Fast,778708636,25.060005,151487.70
899,Middle East and North Africa,Somalia,Beverages,Online,Medium,942700612,15.66,76968.90
900,Australia and Oceania,New Zealand,Household,Offline,Fast,905381858,165.73001,242960.18
901,Middle East and North Africa,Kuwait,Meat,Online,Slow,480863702,57.200012,406692.00
902,Asia,Japan,Cosmetics,Online,UltraFast,453569972,173.87003,50248.43
903,Europe,Norway,Baby Food,Offline,Fast,328236997,95.86,141489.36
904,Sub-Saharan Africa,Lesotho,Personal Care,Offline,Slow,579913604,25.060005,204915.62
905,Europe,Belgium,Cosmetics,Online,Fast,403961122,173.87003,1726181.36
906,Central America and the Caribbean,Honduras,Cosmetics,Offline,UltraFast,866053378,173.87003,572901.65
907,Europe,Austria,Household,Offline,Slow,852176702,165.73001,1139890.94
908,Middle East and North Africa,Oman,Baby Food,Online,Medium,218629920,95.86,604589.02
909,Middle East and North Africa,Oman,Baby Food,Offline,Slow,242024362,95.86,885938.12
910,Europe,Spain,Snacks,Offline,Medium,469283854,55.14,20732.64
911,Middle East and North Africa,Afghanistan,Fruits,Online,Slow,967644727,2.4099998,15503.53
912,Central America and the Caribbean,Saint Vincent and the Grenadines,Cosmetics,Offline,UltraFast,974655807,173.87003,202906.29
913,Europe,Iceland,Vegetables,Online,Medium,248178422,63.129997,23042.45
914,Asia,Myanmar,Vegetables,Offline,UltraFast,416386401,63.129997,432061.72
915,Europe,Netherlands,Snacks,Offline,UltraFast,927766072,55.14,300678.42
916,Europe,Slovakia,Vegetables,Online,Medium,401116263,63.129997,509522.23
917,Middle East and North Africa,Bahrain,Fruits,Offline,Fast,675548303,2.4099998,20750.10
918,Sub-Saharan Africa,Lesotho,Baby Food,Online,UltraFast,960486018,95.86,768030.32
919,Central America and the Caribbean,Cuba,Clothes,Offline,UltraFast,985665738,73.44,679320.00
920,Middle East and North Africa,Afghanistan,Clothes,Offline,Slow,551136291,73.44,171188.64
921,Australia and Oceania,Vanuatu,Cereal,Online,UltraFast,877259004,88.59,822912.51
922,Asia,Bhutan,Beverages,Offline,Medium,554707705,15.66,143946.72
923,Australia and Oceania,Palau,Cereal,Offline,UltraFast,494468724,88.59,278084.01
924,Asia,Indonesia,Personal Care,Online,Fast,777840888,25.060005,232030.54
925,Europe,Andorra,Baby Food,Offline,Slow,206435525,95.86,739464.04
926,Middle East and North Africa,Algeria,Office Supplies,Online,Slow,352176463,126.25,719120.00
927,Australia and Oceania,Vanuatu,Cosmetics,Offline,Slow,607300031,173.87003,422330.23
928,North America,Mexico,Baby Food,Online,Fast,434355056,95.86,399544.48
929,Europe,Macedonia,Fruits,Offline,Medium,716202867,2.4099998,22169.59
930,Central America and the Caribbean,Panama,Personal Care,Online,Fast,606017291,25.060005,71120.28
931,Asia,Nepal,Cereal,Offline,Fast,677284657,88.59,215805.24
932,Asia,Nepal,Fruits,Online,Slow,673803794,2.4099998,5714.11
933,Sub-Saharan Africa,Mauritius,Cereal,Offline,Slow,859686028,88.59,802182.45
934,Sub-Saharan Africa,Sao Tome and Principe,Clothes,Online,Fast,669355189,73.44,435499.20
935,Central America and the Caribbean,Saint Vincent and the Grenadines,Fruits,Offline,UltraFast,957547605,2.4099998,20412.70
936,Asia,Maldives,Personal Care,Online,Medium,849312102,25.060005,230050.80
937,Sub-Saharan Africa,Swaziland,Personal Care,Offline,Fast,890010011,25.060005,65030.70
938,Middle East and North Africa,Morocco,Cereal,Online,Fast,795315158,88.59,25159.56
939,Asia,Maldives,Clothes,Offline,Medium,801213872,73.44,429183.36
940,Sub-Saharan Africa,Zimbabwe,Fruits,Offline,Slow,314004981,2.4099998,23875.87
941,Asia,India,Cereal,Online,Slow,160299813,88.59,454643.88
942,Asia,Tajikistan,Beverages,Offline,Slow,337022197,15.66,18979.92
943,Sub-Saharan Africa,Lesotho,Snacks,Offline,Medium,461408460,55.14,544342.08
944,Asia,Bhutan,Office Supplies,Offline,Medium,221007430,126.25,1245456.25
945,Central America and the Caribbean,Trinidad and Tobago,Snacks,Offline,UltraFast,723680436,55.14,109066.92
946,Australia and Oceania,Tuvalu,Fruits,Offline,UltraFast,447601306,2.4099998,9707.48
947,Middle East and North Africa,Iraq,Clothes,Offline,UltraFast,191256368,73.44,430652.16
948,Sub-Saharan Africa,The Gambia,Vegetables,Offline,UltraFast,823444449,63.129997,275625.58
949,Middle East and North Africa,Bahrain,Beverages,Online,Slow,133276879,15.66,132248.70
950,Middle East and North Africa,Qatar,Meat,Online,Fast,480177485,57.200012,231259.60
951,Sub-Saharan Africa,Angola,Household,Offline,Fast,243882596,165.73001,1513943.55
952,Central America and the Caribbean,Costa Rica,Cosmetics,Online,UltraFast,574441039,173.87003,1516841.88
953,Australia and Oceania,Papua New Guinea,Household,Online,Medium,442214143,165.73001,1631943.31
954,Middle East and North Africa,Qatar,Clothes,Offline,Slow,687875735,73.44,482574.24
955,Central America and the Caribbean,Saint Kitts and Nevis,Clothes,Offline,Fast,872412145,73.44,366832.80
956,Sub-Saharan Africa,Sierra Leone,Fruits,Offline,Slow,627122199,2.4099998,19882.50
957,Europe,Russia,Fruits,Online,Medium,103617227,2.4099998,3602.95
958,Europe,Lithuania,Vegetables,Offline,Medium,423821055,63.129997,437048.99
959,Europe,United Kingdom,Vegetables,Online,UltraFast,529970014,63.129997,552955.67
960,Asia,Indonesia,Personal Care,Offline,Fast,334612929,25.060005,206895.36
961,Asia,Mongolia,Beverages,Offline,Medium,270611131,15.66,136273.32
962,Middle East and North Africa,Egypt,Office Supplies,Online,Slow,841138446,126.25,52141.25
963,Sub-Saharan Africa,Comoros,Household,Online,Medium,369681203,165.73001,950958.74
964,Europe,Slovenia,Household,Offline,Medium,850038230,165.73001,672366.61
965,Middle East and North Africa,Lebanon,Beverages,Online,Medium,296320855,15.66,106190.46
966,Australia and Oceania,Australia,Cosmetics,Offline,UltraFast,392952907,173.87003,408942.24
967,Central America and the Caribbean,Haiti,Snacks,Online,Medium,644670712,55.14,68649.30
968,Central America and the Caribbean,Saint Kitts and Nevis,Meat,Online,UltraFast,626523101,57.200012,55083.60
969,Middle East and North Africa,Syria,Vegetables,Offline,Medium,433871400,63.129997,65907.72
970,Asia,Laos,Snacks,Offline,Medium,232389438,55.14,444097.56
971,Central America and the Caribbean,Saint Kitts and Nevis,Cereal,Offline,Fast,708063542,88.59,52445.28
972,Sub-Saharan Africa,Sudan,Vegetables,Offline,Fast,817192542,63.129997,270701.44
973,Central America and the Caribbean,Guatemala,Meat,Offline,Fast,936387765,57.200012,389131.60
974,Asia,Brunei,Clothes,Offline,Fast,612573039,73.44,207835.20
975,Middle East and North Africa,Jordan,Clothes,Online,Medium,812984693,73.44,667716.48
976,Central America and the Caribbean,Panama,Meat,Offline,Slow,775171554,57.200012,534476.80
977,Sub-Saharan Africa,Central African Republic,Household,Online,Fast,256994950,165.73001,1553221.56
978,Middle East and North Africa,Bahrain,Beverages,Offline,Medium,886628711,15.66,31210.38
979,Sub-Saharan Africa,Burundi,Beverages,Online,Slow,312559163,15.66,32212.62
980,Europe,Austria,Cereal,Online,UltraFast,753585135,88.59,127835.37
981,Australia and Oceania,Fiji,Beverages,Offline,Fast,448817956,15.66,63610.92
982,Australia and Oceania,Fiji,Clothes,Offline,Medium,407681453,73.44,62864.64
983,Europe,Switzerland,Snacks,Online,Fast,359911954,55.14,264672.00
984,Middle East and North Africa,Yemen,Office Supplies,Offline,Medium,105558288,126.25,744622.50
985,Sub-Saharan Africa,Comoros,Personal Care,Offline,Fast,864981782,25.060005,155021.16
986,Sub-Saharan Africa,Democratic Republic of the Congo,Office Supplies,Online,Slow,328856265,126.25,597415.00
987,Asia,Mongolia,Clothes,Offline,Fast,308168065,73.44,193367.52
988,Australia and Oceania,Palau,Household,Offline,UltraFast,884216010,165.73001,1329320.33
989,Europe,Monaco,Snacks,Offline,Medium,858611428,55.14,58282.98
990,Australia and Oceania,Fiji,Cereal,Online,UltraFast,903278148,88.59,791285.88
991,Sub-Saharan Africa,Mali,Beverages,Online,UltraFast,410452497,15.66,13624.20
992,Sub-Saharan Africa,Liberia,Cereal,Offline,Fast,642683303,88.59,276932.34
993,Europe,Switzerland,Beverages,Offline,UltraFast,682831895,15.66,62436.42
994,Australia and Oceania,Samoa,Baby Food,Online,UltraFast,584072101,95.86,840596.34
995,Asia,Nepal,Meat,Offline,Slow,919890248,57.200012,275761.20
996,Middle East and North Africa,Azerbaijan,Snacks,Offline,Slow,534085166,55.14,359733.36
997,Europe,Georgia,Baby Food,Offline,Fast,590768182,95.86,27607.68
998,Middle East and North Africa,United Arab Emirates,Vegetables,Online,Slow,524363124,63.129997,603270.28
999,Europe,Finland,Household,Offline,UltraFast,289606320,165.73001,1624319.73
1000,Europe,Portugal,Cereal,Offline,Slow,811546599,88.59,312545.52
